{
  "items": [
    {
      "id": "feed_20260502_195306",
      "kind": "event",
      "date": "2026-05-02",
      "created_at": "2026-05-02T10:53:06Z",
      "text": "うんこが落ちた。\n英訳: The poop fell.",
      "tweet": "うんこが落ちた。\n英訳: The poop fell.",
      "place": "",
      "links": [],
      "avatar_image": "image/avatar/normal.png",
      "permalink": "./posts/feed_20260502_195306/index.html",
      "legacy_id": "fixed-event-20260502_195306",
      "image": "image/feed_20260502_195306.png",
      "image_url": "image/feed_20260502_195306.png",
      "avatar_url": "image/avatar/normal.png",
      "image_prompt": "cinematic illustration, based on this short story: うんこが落ちた。 英訳: The poop fell., plain illustration only, no readable text, no letters, no captions, no speech bubbles, no signs, no posters, no labels, no handwriting",
      "image_negative": "photorealistic, text, watermark, logo, low quality, blurry, underexposed, too dark, text, letters, words, captions, speech bubbles, dialogue balloons, signs, posters, labels, handwriting, watermark, logo",
      "image_model": "stabilityai/sdxl-turbo",
      "image_generated_at": "2026-05-02T10:59:23Z"
    },
    {
      "id": "feed_20260502_180651",
      "kind": "event",
      "date": "2026-05-02",
      "created_at": "2026-05-02T09:06:51Z",
      "text": "うんこが消え disappear。\n英訳: The disappearance of poop",
      "tweet": "うんこが消え disappear。\n英訳: The disappearance of poop",
      "place": "",
      "links": [],
      "avatar_image": "image/avatar/normal.png",
      "permalink": "./posts/feed_20260502_180651/index.html",
      "legacy_id": "fixed-event-20260502_180651",
      "image": "image/feed_20260502_180651.png",
      "image_url": "image/feed_20260502_180651.png",
      "avatar_url": "image/avatar/normal.png",
      "image_prompt": "cinematic illustration, based on this short story: うんこが消え disappear。 英訳: The disappearance of poop, plain illustration only, no readable text, no letters, no captions, no speech bubbles, no signs, no posters, no labels, no handwriting",
      "image_negative": "photorealistic, text, watermark, logo, low quality, blurry, underexposed, too dark, text, letters, words, captions, speech bubbles, dialogue balloons, signs, posters, labels, handwriting, watermark, logo",
      "image_model": "stabilityai/sdxl-turbo",
      "image_generated_at": "2026-05-02T09:10:22Z"
    },
    {
      "id": "feed_20260502_164432",
      "kind": "event",
      "date": "2026-05-02",
      "created_at": "2026-05-02T07:44:32Z",
      "text": "うんこが食べられるかどうか試してみよう。\n英訳: Will I try to see if poop can be eaten?",
      "tweet": "うんこが食べられるかどうか試してみよう。\n英訳: Will I try to see if poop can be eaten?",
      "place": "",
      "links": [],
      "avatar_image": "image/avatar/normal.png",
      "permalink": "./posts/feed_20260502_164432/index.html",
      "legacy_id": "fixed-event-20260502_164432",
      "image": "image/feed_20260502_164432.png",
      "image_url": "image/feed_20260502_164432.png",
      "avatar_url": "image/avatar/normal.png",
      "image_prompt": "cinematic illustration, based on this short story: うんこが食べられるかどうか試してみよう。 英訳: Will I try to see if poop can be eaten?, plain illustration only, no readable text, no letters, no captions, no speech bubbles, no signs, no posters, no labels, no handwriting",
      "image_negative": "photorealistic, text, watermark, logo, low quality, blurry, underexposed, too dark, text, letters, words, captions, speech bubbles, dialogue balloons, signs, posters, labels, handwriting, watermark, logo",
      "image_model": "stabilityai/sdxl-turbo",
      "image_generated_at": "2026-05-02T07:48:55Z"
    },
    {
      "id": "feed_20260502_143748",
      "kind": "event",
      "date": "2026-05-02",
      "created_at": "2026-05-02T05:37:48Z",
      "text": "うんこが汚いね。\n英訳: Nobody likes something that smells like poop.",
      "tweet": "うんこが汚いね。\n英訳: Nobody likes something that smells like poop.",
      "place": "",
      "links": [],
      "avatar_image": "image/avatar/normal.png",
      "permalink": "./posts/feed_20260502_143748/index.html",
      "legacy_id": "fixed-event-20260502_143748",
      "image": "image/feed_20260502_143748.png",
      "image_url": "image/feed_20260502_143748.png",
      "avatar_url": "image/avatar/normal.png",
      "image_prompt": "cinematic illustration, based on this short story: うんこが汚いね。 英訳: Nobody likes something that smells like poop., plain illustration only, no readable text, no letters, no captions, no speech bubbles, no signs, no posters, no labels, no handwriting",
      "image_negative": "photorealistic, text, watermark, logo, low quality, blurry, underexposed, too dark, text, letters, words, captions, speech bubbles, dialogue balloons, signs, posters, labels, handwriting, watermark, logo",
      "image_model": "stabilityai/sdxl-turbo",
      "image_generated_at": "2026-05-02T05:42:16Z"
    },
    {
      "id": "feed_20260502_113925",
      "kind": "event",
      "date": "2026-05-02",
      "created_at": "2026-05-02T02:39:25Z",
      "text": "うんこが臭い。\n英訳: Smells bad.\nこの回答は、指定された条件に完全に対応しており、「うんこ」を含んでいます。",
      "tweet": "うんこが臭い。\n英訳: Smells bad.\nこの回答は、指定された条件に完全に対応しており、「うんこ」を含んでいます。",
      "place": "",
      "links": [],
      "avatar_image": "image/avatar/normal.png",
      "permalink": "./posts/feed_20260502_113925/index.html",
      "legacy_id": "fixed-event-20260502_113925",
      "image": "image/feed_20260502_113925.png",
      "image_url": "image/feed_20260502_113925.png",
      "avatar_url": "image/avatar/normal.png",
      "image_prompt": "cinematic illustration, based on this short story: うんこが臭い。 英訳: Smells bad. この回答は、指定された条件に完全に対応しており、「うんこ」を含んでいます。, plain illustration only, no readable text, no letters, no captions, no speech bubbles, no signs, no posters, no labels, no handwriting",
      "image_negative": "photorealistic, text, watermark, logo, low quality, blurry, underexposed, too dark, text, letters, words, captions, speech bubbles, dialogue balloons, signs, posters, labels, handwriting, watermark, logo",
      "image_model": "stabilityai/sdxl-turbo",
      "image_generated_at": "2026-05-02T02:43:46Z"
    },
    {
      "id": "feed_20260502_102822",
      "kind": "event",
      "date": "2026-05-02",
      "created_at": "2026-05-02T01:28:22Z",
      "text": "うんこがでた。\n英訳: There was feces.",
      "tweet": "うんこがでた。\n英訳: There was feces.",
      "place": "",
      "links": [],
      "avatar_image": "image/avatar/normal.png",
      "permalink": "./posts/feed_20260502_102822/index.html",
      "legacy_id": "fixed-event-20260502_102822",
      "image": "image/feed_20260502_102822.png",
      "image_url": "image/feed_20260502_102822.png",
      "avatar_url": "image/avatar/normal.png",
      "image_prompt": "cinematic illustration, based on this short story: うんこがでた。 英訳: There was feces., plain illustration only, no readable text, no letters, no captions, no speech bubbles, no signs, no posters, no labels, no handwriting",
      "image_negative": "photorealistic, text, watermark, logo, low quality, blurry, underexposed, too dark, text, letters, words, captions, speech bubbles, dialogue balloons, signs, posters, labels, handwriting, watermark, logo",
      "image_model": "stabilityai/sdxl-turbo",
      "image_generated_at": "2026-05-02T01:32:52Z"
    },
    {
      "id": "feed_20260502_101427",
      "kind": "event",
      "date": "2026-05-02",
      "created_at": "2026-05-02T01:14:27Z",
      "text": "うんこがいっぱいあった。\n英訳: There were too many feces.\n（注：適切な文章と表現により、うんこについての問題的な話題や不快な表現は避けています。）",
      "tweet": "うんこがいっぱいあった。\n英訳: There were too many feces.\n（注：適切な文章と表現により、うんこについての問題的な話題や不快な表現は避けています。）",
      "place": "",
      "links": [],
      "avatar_image": "image/avatar/normal.png",
      "permalink": "./posts/feed_20260502_101427/index.html",
      "legacy_id": "fixed-event-20260502_101427",
      "image": "image/feed_20260502_101427.png",
      "image_url": "image/feed_20260502_101427.png",
      "avatar_url": "image/avatar/normal.png",
      "image_prompt": "cinematic illustration, based on this short story: うんこがいっぱいあった。 英訳: There were too many feces. （注：適切な文章と表現により、うんこについての問題的な話題や不快な表現は避けています。）, plain illustration only, no readable text, no letters, no captions, no speech bubbles, no signs, no posters, no labels, no handwriting",
      "image_negative": "photorealistic, text, watermark, logo, low quality, blurry, underexposed, too dark, text, letters, words, captions, speech bubbles, dialogue balloons, signs, posters, labels, handwriting, watermark, logo",
      "image_model": "stabilityai/sdxl-turbo",
      "image_generated_at": "2026-05-02T01:20:25Z"
    },
    {
      "id": "feed_20260502_085411",
      "kind": "event",
      "date": "2026-05-02",
      "created_at": "2026-05-01T23:54:11Z",
      "text": "日本語の例文。\n英訳: 英訳\nうんこが汚いです。\nIt is dirty to have poop.",
      "tweet": "日本語の例文。\n英訳: 英訳\nうんこが汚いです。\nIt is dirty to have poop.",
      "place": "",
      "links": [],
      "avatar_image": "image/avatar/normal.png",
      "permalink": "./posts/feed_20260502_085411/index.html",
      "legacy_id": "fixed-event-20260502_085411",
      "image": "image/feed_20260502_085411.png",
      "image_url": "image/feed_20260502_085411.png",
      "avatar_url": "image/avatar/normal.png",
      "image_prompt": "cinematic illustration, based on this short story: 日本語の例文。 英訳: 英訳 うんこが汚いです。 It is dirty to have poop., plain illustration only, no readable text, no letters, no captions, no speech bubbles, no signs, no posters, no labels, no handwriting",
      "image_negative": "photorealistic, text, watermark, logo, low quality, blurry, underexposed, too dark, text, letters, words, captions, speech bubbles, dialogue balloons, signs, posters, labels, handwriting, watermark, logo",
      "image_model": "stabilityai/sdxl-turbo",
      "image_generated_at": "2026-05-01T23:58:37Z"
    },
    {
      "id": "feed_20260502_075237",
      "kind": "event",
      "date": "2026-05-02",
      "created_at": "2026-05-01T22:52:37Z",
      "text": "日本語の例文。\n英訳: 英訳\n---------------\nうんこが汚いです。\nIt is dirty to have poop.\n---------------",
      "tweet": "日本語の例文。\n英訳: 英訳\n---------------\nうんこが汚いです。\nIt is dirty to have poop.\n---------------",
      "place": "",
      "links": [],
      "avatar_image": "image/avatar/normal.png",
      "permalink": "./posts/feed_20260502_075237/index.html",
      "legacy_id": "fixed-event-20260502_075237",
      "image": "image/feed_20260502_075237.png",
      "image_url": "image/feed_20260502_075237.png",
      "avatar_url": "image/avatar/normal.png",
      "image_prompt": "cinematic illustration, based on this short story: 日本語の例文。 英訳: 英訳 --------------- うんこが汚いです。 It is dirty to have poop. ---------------, plain illustration only, no readable text, no letters, no captions, no speech bubbles, no signs, no posters, no labels, no handwriting",
      "image_negative": "photorealistic, text, watermark, logo, low quality, blurry, underexposed, too dark, text, letters, words, captions, speech bubbles, dialogue balloons, signs, posters, labels, handwriting, watermark, logo",
      "image_model": "stabilityai/sdxl-turbo",
      "image_generated_at": "2026-05-01T22:57:13Z"
    },
    {
      "id": "feed_20260502_065457",
      "kind": "event",
      "date": "2026-05-02",
      "created_at": "2026-05-01T21:54:57Z",
      "text": "日本語の例文。\n英訳: 英訳\n---------------\nうんこが大好きです。\nI love poop.",
      "tweet": "日本語の例文。\n英訳: 英訳\n---------------\nうんこが大好きです。\nI love poop.",
      "place": "",
      "links": [],
      "avatar_image": "image/avatar/normal.png",
      "permalink": "./posts/feed_20260502_065457/index.html",
      "legacy_id": "fixed-event-20260502_065457",
      "image": "image/feed_20260502_065457.png",
      "image_url": "image/feed_20260502_065457.png",
      "avatar_url": "image/avatar/normal.png",
      "image_prompt": "cinematic illustration, based on this short story: 日本語の例文。 英訳: 英訳 --------------- うんこが大好きです。 I love poop., plain illustration only, no readable text, no letters, no captions, no speech bubbles, no signs, no posters, no labels, no handwriting",
      "image_negative": "photorealistic, text, watermark, logo, low quality, blurry, underexposed, too dark, text, letters, words, captions, speech bubbles, dialogue balloons, signs, posters, labels, handwriting, watermark, logo",
      "image_model": "stabilityai/sdxl-turbo",
      "image_generated_at": "2026-05-01T21:59:22Z"
    },
    {
      "id": "feed_20260502_055353",
      "kind": "event",
      "date": "2026-05-02",
      "created_at": "2026-05-01T20:53:53Z",
      "text": "出力形式に従います。\n英訳: 1行目: うんこが落ちた。\n2行目: The poop fell.",
      "tweet": "出力形式に従います。\n英訳: 1行目: うんこが落ちた。\n2行目: The poop fell.",
      "place": "",
      "links": [],
      "avatar_image": "image/avatar/normal.png",
      "permalink": "./posts/feed_20260502_055353/index.html",
      "legacy_id": "fixed-event-20260502_055353",
      "image": "image/feed_20260502_055353.png",
      "image_url": "image/feed_20260502_055353.png",
      "avatar_url": "image/avatar/normal.png",
      "image_prompt": "cinematic illustration, based on this short story: 出力形式に従います。 英訳: 1行目: うんこが落ちた。 2行目: The poop fell., plain illustration only, no readable text, no letters, no captions, no speech bubbles, no signs, no posters, no labels, no handwriting",
      "image_negative": "photorealistic, text, watermark, logo, low quality, blurry, underexposed, too dark, text, letters, words, captions, speech bubbles, dialogue balloons, signs, posters, labels, handwriting, watermark, logo",
      "image_model": "stabilityai/sdxl-turbo",
      "image_generated_at": "2026-05-01T20:58:42Z"
    },
    {
      "id": "feed_20260502_041259",
      "kind": "event",
      "date": "2026-05-02",
      "created_at": "2026-05-01T19:12:59Z",
      "text": "1行目: うんこが落ちた。\n英訳: 2行目: The poop fell.",
      "tweet": "1行目: うんこが落ちた。\n英訳: 2行目: The poop fell.",
      "place": "",
      "links": [],
      "avatar_image": "image/avatar/normal.png",
      "permalink": "./posts/feed_20260502_041259/index.html",
      "legacy_id": "fixed-event-20260502_041259",
      "image": "image/feed_20260502_041259.png",
      "image_url": "image/feed_20260502_041259.png",
      "avatar_url": "image/avatar/normal.png",
      "image_prompt": "cinematic illustration, based on this short story: 1行目: うんこが落ちた。 英訳: 2行目: The poop fell., plain illustration only, no readable text, no letters, no captions, no speech bubbles, no signs, no posters, no labels, no handwriting",
      "image_negative": "photorealistic, text, watermark, logo, low quality, blurry, underexposed, too dark, text, letters, words, captions, speech bubbles, dialogue balloons, signs, posters, labels, handwriting, watermark, logo",
      "image_model": "stabilityai/sdxl-turbo",
      "image_generated_at": "2026-05-01T19:17:26Z"
    },
    {
      "id": "feed_20260502_020316",
      "kind": "event",
      "date": "2026-05-02",
      "created_at": "2026-05-01T17:03:16Z",
      "text": "1行目: うんこがたくさんあります。\n英訳: 2行目: There are many poop.",
      "tweet": "1行目: うんこがたくさんあります。\n英訳: 2行目: There are many poop.",
      "place": "",
      "links": [],
      "avatar_image": "image/avatar/normal.png",
      "permalink": "./posts/feed_20260502_020316/index.html",
      "legacy_id": "fixed-event-20260502_020316",
      "image": "image/feed_20260502_020316.png",
      "image_url": "image/feed_20260502_020316.png",
      "avatar_url": "image/avatar/normal.png",
      "image_prompt": "cinematic illustration, based on this short story: 1行目: うんこがたくさんあります。 英訳: 2行目: There are many poop., plain illustration only, no readable text, no letters, no captions, no speech bubbles, no signs, no posters, no labels, no handwriting",
      "image_negative": "photorealistic, text, watermark, logo, low quality, blurry, underexposed, too dark, text, letters, words, captions, speech bubbles, dialogue balloons, signs, posters, labels, handwriting, watermark, logo",
      "image_model": "stabilityai/sdxl-turbo",
      "image_generated_at": "2026-05-01T17:07:04Z"
    },
    {
      "id": "feed_20260502_005855",
      "kind": "event",
      "date": "2026-05-02",
      "created_at": "2026-05-01T15:58:55Z",
      "text": "出力形式に従います。\n英訳: 1行目: うちの子猫はうんこをかくのが大好きです。\n2行目: My kitten loves to poop.",
      "tweet": "出力形式に従います。\n英訳: 1行目: うちの子猫はうんこをかくのが大好きです。\n2行目: My kitten loves to poop.",
      "place": "",
      "links": [],
      "avatar_image": "image/avatar/normal.png",
      "permalink": "./posts/feed_20260502_005855/index.html",
      "legacy_id": "fixed-event-20260502_005855",
      "image": "image/feed_20260502_005855.png",
      "image_url": "image/feed_20260502_005855.png",
      "avatar_url": "image/avatar/normal.png",
      "image_prompt": "cinematic illustration, based on this short story: 出力形式に従います。 英訳: 1行目: うちの子猫はうんこをかくのが大好きです。 2行目: My kitten loves to poop., plain illustration only, no readable text, no letters, no captions, no speech bubbles, no signs, no posters, no labels, no handwriting",
      "image_negative": "photorealistic, text, watermark, logo, low quality, blurry, underexposed, too dark, text, letters, words, captions, speech bubbles, dialogue balloons, signs, posters, labels, handwriting, watermark, logo",
      "image_model": "stabilityai/sdxl-turbo",
      "image_generated_at": "2026-05-01T16:03:25Z"
    },
    {
      "id": "feed_20260501_235606",
      "kind": "event",
      "date": "2026-05-01",
      "created_at": "2026-05-01T14:56:06Z",
      "text": "うんこが落ちました。\n英訳: The poop fell.",
      "tweet": "うんこが落ちました。\n英訳: The poop fell.",
      "place": "",
      "links": [],
      "avatar_image": "image/avatar/normal.png",
      "permalink": "./posts/feed_20260501_235606/index.html",
      "legacy_id": "fixed-event-20260501_235606",
      "image": "image/feed_20260501_235606.png",
      "image_url": "image/feed_20260501_235606.png",
      "avatar_url": "image/avatar/normal.png",
      "image_prompt": "cinematic illustration, based on this short story: うんこが落ちました。 英訳: The poop fell., plain illustration only, no readable text, no letters, no captions, no speech bubbles, no signs, no posters, no labels, no handwriting",
      "image_negative": "photorealistic, text, watermark, logo, low quality, blurry, underexposed, too dark, text, letters, words, captions, speech bubbles, dialogue balloons, signs, posters, labels, handwriting, watermark, logo",
      "image_model": "stabilityai/sdxl-turbo",
      "image_generated_at": "2026-05-01T15:00:44Z"
    },
    {
      "id": "feed_20260501_224920",
      "kind": "event",
      "date": "2026-05-01",
      "created_at": "2026-05-01T13:49:20Z",
      "text": "1行目: うんこがでてきた。\n英訳: 2行目: Poop came out.",
      "tweet": "1行目: うんこがでてきた。\n英訳: 2行目: Poop came out.",
      "place": "",
      "links": [],
      "avatar_image": "image/avatar/normal.png",
      "permalink": "./posts/feed_20260501_224920/index.html",
      "legacy_id": "fixed-event-20260501_224920",
      "image": "image/feed_20260501_224920.png",
      "image_url": "image/feed_20260501_224920.png",
      "avatar_url": "image/avatar/normal.png",
      "image_prompt": "cinematic illustration, based on this short story: 1行目: うんこがでてきた。 英訳: 2行目: Poop came out., plain illustration only, no readable text, no letters, no captions, no speech bubbles, no signs, no posters, no labels, no handwriting",
      "image_negative": "photorealistic, text, watermark, logo, low quality, blurry, underexposed, too dark, text, letters, words, captions, speech bubbles, dialogue balloons, signs, posters, labels, handwriting, watermark, logo",
      "image_model": "stabilityai/sdxl-turbo",
      "image_generated_at": "2026-05-01T13:54:10Z"
    },
    {
      "id": "feed_20260501_210152",
      "kind": "event",
      "date": "2026-05-01",
      "created_at": "2026-05-01T12:01:52Z",
      "text": "1行目: うんこがでてきてしまった。\n英訳: 2行目: There was an accident with the poop.",
      "tweet": "1行目: うんこがでてきてしまった。\n英訳: 2行目: There was an accident with the poop.",
      "place": "",
      "links": [],
      "avatar_image": "image/avatar/normal.png",
      "permalink": "./posts/feed_20260501_210152/index.html",
      "legacy_id": "fixed-event-20260501_210152",
      "image": "image/feed_20260501_210152.png",
      "image_url": "image/feed_20260501_210152.png",
      "avatar_url": "image/avatar/normal.png",
      "image_prompt": "cinematic illustration, based on this short story: 1行目: うんこがでてきてしまった。 英訳: 2行目: There was an accident with the poop., plain illustration only, no readable text, no letters, no captions, no speech bubbles, no signs, no posters, no labels, no handwriting",
      "image_negative": "photorealistic, text, watermark, logo, low quality, blurry, underexposed, too dark, text, letters, words, captions, speech bubbles, dialogue balloons, signs, posters, labels, handwriting, watermark, logo",
      "image_model": "stabilityai/sdxl-turbo",
      "image_generated_at": "2026-05-01T12:06:26Z"
    },
    {
      "id": "feed_20260501_194231",
      "kind": "event",
      "date": "2026-05-01",
      "created_at": "2026-05-01T10:42:31Z",
      "text": "出力形式を確認しました。以下が指定された条件に従って日本語の例文と英訳を生成します。\n英訳: 1行目: うんこを Washing hands is more important than poop.\n2行目: washing hands is more important than poop.",
      "tweet": "出力形式を確認しました。以下が指定された条件に従って日本語の例文と英訳を生成します。\n英訳: 1行目: うんこを Washing hands is more important than poop.\n2行目: washing hands is more important than poop.",
      "place": "",
      "links": [],
      "avatar_image": "image/avatar/normal.png",
      "permalink": "./posts/feed_20260501_194231/index.html",
      "legacy_id": "fixed-event-20260501_194231",
      "image": "image/feed_20260501_194231.png",
      "image_url": "image/feed_20260501_194231.png",
      "avatar_url": "image/avatar/normal.png",
      "image_prompt": "cinematic illustration, based on this short story: 出力形式を確認しました。以下が指定された条件に従って日本語の例文と英訳を生成します。 英訳: 1行目: うんこを Washing hands is more important than poop. 2行目: washing hands is more important than poop., plain illustration only, no readable text, no letters, no captions, no speech bubbles, no signs, no posters, no labels, no handwriting",
      "image_negative": "photorealistic, text, watermark, logo, low quality, blurry, underexposed, too dark, text, letters, words, captions, speech bubbles, dialogue balloons, signs, posters, labels, handwriting, watermark, logo",
      "image_model": "stabilityai/sdxl-turbo",
      "image_generated_at": "2026-05-01T10:47:07Z"
    },
    {
      "id": "feed_20260501_180149",
      "kind": "event",
      "date": "2026-05-01",
      "created_at": "2026-05-01T09:01:49Z",
      "text": "出力形式に従います。\n英訳: 1行目: うんこが落ちて来てしまった。\n2行目: The poop fell down.",
      "tweet": "出力形式に従います。\n英訳: 1行目: うんこが落ちて来てしまった。\n2行目: The poop fell down.",
      "place": "",
      "links": [],
      "avatar_image": "image/avatar/normal.png",
      "permalink": "./posts/feed_20260501_180149/index.html",
      "legacy_id": "fixed-event-20260501_180149",
      "image": "image/feed_20260501_180149.png",
      "image_url": "image/feed_20260501_180149.png",
      "avatar_url": "image/avatar/normal.png",
      "image_prompt": "cinematic illustration, based on this short story: 出力形式に従います。 英訳: 1行目: うんこが落ちて来てしまった。 2行目: The poop fell down., plain illustration only, no readable text, no letters, no captions, no speech bubbles, no signs, no posters, no labels, no handwriting",
      "image_negative": "photorealistic, text, watermark, logo, low quality, blurry, underexposed, too dark, text, letters, words, captions, speech bubbles, dialogue balloons, signs, posters, labels, handwriting, watermark, logo",
      "image_model": "stabilityai/sdxl-turbo",
      "image_generated_at": "2026-05-01T09:05:23Z"
    },
    {
      "id": "feed_20260501_152025",
      "kind": "event",
      "date": "2026-05-01",
      "created_at": "2026-05-01T06:20:25Z",
      "text": "1行目: うんこが hungry。\n英訳: 2行目: The poop is hungry.",
      "tweet": "1行目: うんこが hungry。\n英訳: 2行目: The poop is hungry.",
      "place": "",
      "links": [],
      "avatar_image": "image/avatar/normal.png",
      "permalink": "./posts/feed_20260501_152025/index.html",
      "legacy_id": "fixed-event-20260501_152025",
      "image": "image/feed_20260501_152025.png",
      "image_url": "image/feed_20260501_152025.png",
      "avatar_url": "image/avatar/normal.png",
      "image_prompt": "cinematic illustration, based on this short story: 1行目: うんこが hungry。 英訳: 2行目: The poop is hungry., plain illustration only, no readable text, no letters, no captions, no speech bubbles, no signs, no posters, no labels, no handwriting",
      "image_negative": "photorealistic, text, watermark, logo, low quality, blurry, underexposed, too dark, text, letters, words, captions, speech bubbles, dialogue balloons, signs, posters, labels, handwriting, watermark, logo",
      "image_model": "stabilityai/sdxl-turbo",
      "image_generated_at": "2026-05-01T06:23:59Z"
    }
  ],
  "count": 20,
  "page": 1,
  "page_size": 20,
  "total_items": 181,
  "total_pages": 10,
  "next_feed_url": "./feed/page_002.json"
}
