{
  "items": [
    {
      "id": "feed_20260423_193317",
      "kind": "event",
      "date": "2026-04-23",
      "created_at": "2026-04-23T10:33:17Z",
      "text": "うんこをしたのでは『後悔』しない。\n\n\n学習ポイント: 『後悔』するのは自分がやったことへの regrets を抱くのである。\n\n\n英訳: I won't regret doing it.",
      "tweet": "うんこをしたのでは『後悔』しない。\n\n\n学習ポイント: 『後悔』するのは自分がやったことへの regrets を抱くのである。\n\n\n英訳: I won't regret doing it.",
      "place": "",
      "links": [],
      "avatar_image": "image/avatar/normal.png",
      "permalink": "./posts/feed_20260423_193317/index.html",
      "legacy_id": "fixed-event-20260423_193317",
      "image": "image/feed_20260423_193317.png",
      "image_url": "image/feed_20260423_193317.png",
      "avatar_url": "image/avatar/normal.png",
      "image_prompt": "illustration, clear composition, soft lighting, suitable for an event post, scene in Yokosuka, Japan. Inspired by: うんこをしたのでは『後悔』しない。 学習ポイント: 『後悔』するのは自分がやったことへの regrets を抱くのである。 英訳: I won't regret doing it.",
      "image_negative": "photorealistic, text, watermark, logo, low quality, blurry, underexposed, too dark",
      "image_model": "stabilityai/sdxl-turbo",
      "image_generated_at": "2026-04-23T10:37:52Z"
    },
    {
      "id": "feed_20260423_165426",
      "kind": "event",
      "date": "2026-04-23",
      "created_at": "2026-04-23T07:54:26Z",
      "text": "うんこが落ちている以上、そのままにしておくわけにはいかない。\n\n\n学習ポイント: 『〜わけにはいかない』は、事情や常識のためにそうすることができないと述べる表現である。\n\n\n英訳: As long as poop is lying there, we cannot just leave it as it is.",
      "tweet": "うんこが落ちている以上、そのままにしておくわけにはいかない。\n\n\n学習ポイント: 『〜わけにはいかない』は、事情や常識のためにそうすることができないと述べる表現である。\n\n\n英訳: As long as poop is lying there, we cannot just leave it as it is.",
      "place": "",
      "links": [],
      "avatar_image": "image/avatar/normal.png",
      "permalink": "./posts/feed_20260423_165426/index.html",
      "legacy_id": "fixed-event-20260423_165426",
      "image": "image/feed_20260423_165426.png",
      "image_url": "image/feed_20260423_165426.png",
      "avatar_url": "image/avatar/normal.png",
      "image_prompt": "illustration, clear composition, soft lighting, suitable for an event post, scene in Yokosuka, Japan. Inspired by: うんこが落ちている以上、そのままにしておくわけにはいかない。 学習ポイント: 『〜わけにはいかない』は、事情や常識のためにそうすることができないと述べる表現である。 英訳: As long as poop is lying there, we cannot just leave it as it is.",
      "image_negative": "photorealistic, text, watermark, logo, low quality, blurry, underexposed, too dark",
      "image_model": "stabilityai/sdxl-turbo",
      "image_generated_at": "2026-04-23T07:58:42Z"
    },
    {
      "id": "feed_20260423_161308",
      "kind": "event",
      "date": "2026-04-23",
      "created_at": "2026-04-23T07:13:08Z",
      "text": "うんこが落ちている以上、そのままにしておくわけにはいかない。\n\n\n学習ポイント: 『〜わけにはいかない』は、事情や常識のためにそうすることができないと述べる表現である。\n\n\n英訳: As long as poop is lying there, we cannot just leave it as it is.",
      "tweet": "うんこが落ちている以上、そのままにしておくわけにはいかない。\n\n\n学習ポイント: 『〜わけにはいかない』は、事情や常識のためにそうすることができないと述べる表現である。\n\n\n英訳: As long as poop is lying there, we cannot just leave it as it is.",
      "place": "",
      "links": [],
      "avatar_image": "image/avatar/normal.png",
      "permalink": "./posts/feed_20260423_161308/index.html",
      "legacy_id": "fixed-event-20260423_161308",
      "image": "image/feed_20260423_165426.png",
      "image_url": "image/feed_20260423_165426.png",
      "avatar_url": "image/avatar/normal.png",
      "image_prompt": "illustration, clear composition, soft lighting, suitable for an event post, scene in Yokosuka, Japan. Inspired by: うんこが落ちている以上、そのままにしておくわけにはいかない。 学習ポイント: 『〜わけにはいかない』は、事情や常識のためにそうすることができないと述べる表現である。 英訳: As long as poop is lying there, we cannot just leave it as it is.",
      "image_negative": "photorealistic, text, watermark, logo, low quality, blurry, underexposed, too dark",
      "image_model": "stabilityai/sdxl-turbo",
      "image_generated_at": "2026-04-23T07:58:42Z"
    },
    {
      "id": "feed_20260423_154143",
      "kind": "event",
      "date": "2026-04-23",
      "created_at": "2026-04-23T06:41:43Z",
      "text": "うんこが落ちている以上、そのままにしておくわけにはいかない。\n学習ポイント: 『〜わけにはいかない』は、事情や常識のためにそうすることができないと述べるN2レベルの表現である。\n英訳: As long as poop is lying there, we cannot just leave it as it is.",
      "tweet": "うんこが落ちている以上、そのままにしておくわけにはいかない。\n学習ポイント: 『〜わけにはいかない』は、事情や常識のためにそうすることができないと述べるN2レベルの表現である。\n英訳: As long as poop is lying there, we cannot just leave it as it is.",
      "place": "",
      "links": [],
      "avatar_image": "image/avatar/normal.png",
      "permalink": "./posts/feed_20260423_154143/index.html",
      "legacy_id": "fixed-event-20260423_154143",
      "image": "image/feed_20260423_154143.png",
      "image_url": "image/feed_20260423_154143.png",
      "avatar_url": "image/avatar/normal.png",
      "image_prompt": "illustration, clear composition, soft lighting, suitable for an event post, scene in Yokosuka, Japan. Inspired by: うんこが落ちている以上、そのままにしておくわけにはいかない。 学習ポイント: 『〜わけにはいかない』は、事情や常識のためにそうすることができないと述べるN2レベルの表現である。 英訳: As long as poop is lying there, we cannot just leave it as it is.",
      "image_negative": "photorealistic, text, watermark, logo, low quality, blurry, underexposed, too dark",
      "image_model": "stabilityai/sdxl-turbo",
      "image_generated_at": "2026-04-23T06:46:15Z"
    },
    {
      "id": "feed_20260423_144909",
      "kind": "event",
      "date": "2026-04-23",
      "created_at": "2026-04-23T05:49:09Z",
      "text": "うんこを隠したくないから、誰か探さなければならないだろう。\n学習ポイント: 『〜わけにはいかない』は、事情や常識のためにそうすることができないと述べるN2レベルの表現である。\n英訳: I don't want to hide the poop, so I might have to look for someone.",
      "tweet": "うんこを隠したくないから、誰か探さなければならないだろう。\n学習ポイント: 『〜わけにはいかない』は、事情や常識のためにそうすることができないと述べるN2レベルの表現である。\n英訳: I don't want to hide the poop, so I might have to look for someone.",
      "place": "",
      "links": [],
      "avatar_image": "image/avatar/normal.png",
      "permalink": "./posts/feed_20260423_144909/index.html",
      "legacy_id": "fixed-event-20260423_144909",
      "image": "image/feed_20260423_144909.png",
      "image_url": "image/feed_20260423_144909.png",
      "avatar_url": "image/avatar/normal.png",
      "image_prompt": "illustration, clear composition, soft lighting, suitable for an event post, scene in Yokosuka, Japan. Inspired by: うんこを隠したくないから、誰か探さなければならないだろう。 学習ポイント: 『〜わけにはいかない』は、事情や常識のためにそうすることができないと述べるN2レベルの表現である。 英訳: I don't want to hide the poop, so I might have to look for someone.",
      "image_negative": "photorealistic, text, watermark, logo, low quality, blurry, underexposed, too dark",
      "image_model": "stabilityai/sdxl-turbo",
      "image_generated_at": "2026-04-23T05:53:48Z"
    },
    {
      "id": "feed_20260423_143143",
      "kind": "event",
      "date": "2026-04-23",
      "created_at": "2026-04-23T05:31:43Z",
      "text": "うんこが落ちている以上、そのままにしておくわけにはいかない。",
      "tweet": "うんこが落ちている以上、そのままにしておくわけにはいかない。",
      "place": "",
      "links": [],
      "avatar_image": "image/avatar/normal.png",
      "permalink": "./posts/feed_20260423_143143/index.html",
      "legacy_id": "fixed-event-20260423_143143",
      "image": "image/feed_20260423_143143.png",
      "image_url": "image/feed_20260423_143143.png",
      "avatar_url": "image/avatar/normal.png",
      "image_prompt": "illustration, clear composition, soft lighting, suitable for an event post, scene in Yokosuka, Japan. Inspired by: うんこが落ちている以上、そのままにしておくわけにはいかない。",
      "image_negative": "photorealistic, text, watermark, logo, low quality, blurry, underexposed, too dark",
      "image_model": "stabilityai/sdxl-turbo",
      "image_generated_at": "2026-04-23T05:36:06Z"
    },
    {
      "id": "feed_20260423_135617",
      "kind": "event",
      "date": "2026-04-23",
      "created_at": "2026-04-23T04:56:17Z",
      "text": "うんこが汚くて掃除が必要だ。",
      "tweet": "うんこが汚くて掃除が必要だ。",
      "place": "",
      "links": [],
      "avatar_image": "image/avatar/normal.png",
      "permalink": "./posts/feed_20260423_135617/index.html",
      "legacy_id": "fixed-event-20260423_135617",
      "image": "image/feed_20260423_135617.png",
      "image_url": "image/feed_20260423_135617.png",
      "avatar_url": "image/avatar/normal.png",
      "image_prompt": "illustration, clear composition, soft lighting, suitable for an event post, scene in Yokosuka, Japan. Inspired by: うんこが汚くて掃除が必要だ。",
      "image_negative": "photorealistic, text, watermark, logo, low quality, blurry, underexposed, too dark",
      "image_model": "stabilityai/sdxl-turbo",
      "image_generated_at": "2026-04-23T05:00:51Z"
    },
    {
      "id": "feed_20260423_124734",
      "kind": "event",
      "date": "2026-04-23",
      "created_at": "2026-04-23T03:47:34Z",
      "text": "うんこを掃除する必要があるかどうか迷う。",
      "tweet": "うんこを掃除する必要があるかどうか迷う。",
      "place": "",
      "links": [],
      "avatar_image": "image/avatar/normal.png",
      "permalink": "./posts/feed_20260423_124734/index.html",
      "legacy_id": "fixed-event-20260423_124734",
      "image": "image/feed_20260423_124734.png",
      "image_url": "image/feed_20260423_124734.png",
      "avatar_url": "image/avatar/normal.png",
      "image_prompt": "illustration, clear composition, soft lighting, suitable for an event post, scene in Yokosuka, Japan. Inspired by: うんこを掃除する必要があるかどうか迷う。",
      "image_negative": "photorealistic, text, watermark, logo, low quality, blurry, underexposed, too dark",
      "image_model": "stabilityai/sdxl-turbo",
      "image_generated_at": "2026-04-23T03:51:11Z"
    },
    {
      "id": "feed_20260423_113646",
      "kind": "event",
      "date": "2026-04-23",
      "created_at": "2026-04-23T02:36:46Z",
      "text": "うんこが落ちている以上、そのままにしておくわけにはいかない。",
      "tweet": "うんこが落ちている以上、そのままにしておくわけにはいかない。",
      "place": "",
      "links": [],
      "avatar_image": "image/avatar/normal.png",
      "permalink": "./posts/feed_20260423_113646/index.html",
      "legacy_id": "fixed-event-20260423_113646",
      "image": "image/feed_20260423_143143.png",
      "image_url": "image/feed_20260423_143143.png",
      "avatar_url": "image/avatar/normal.png",
      "image_prompt": "illustration, clear composition, soft lighting, suitable for an event post, scene in Yokosuka, Japan. Inspired by: うんこが落ちている以上、そのままにしておくわけにはいかない。",
      "image_negative": "photorealistic, text, watermark, logo, low quality, blurry, underexposed, too dark",
      "image_model": "stabilityai/sdxl-turbo",
      "image_generated_at": "2026-04-23T05:36:06Z"
    },
    {
      "id": "feed_20260423_093940",
      "kind": "event",
      "date": "2026-04-23",
      "created_at": "2026-04-23T00:39:40Z",
      "text": "うんこが臭くて、掃除機で吸い取った方がいいだろう。",
      "tweet": "うんこが臭くて、掃除機で吸い取った方がいいだろう。",
      "place": "",
      "links": [],
      "avatar_image": "image/avatar/normal.png",
      "permalink": "./posts/feed_20260423_093940/index.html",
      "legacy_id": "fixed-event-20260423_093940",
      "image": "image/feed_20260423_093940.png",
      "image_url": "image/feed_20260423_093940.png",
      "avatar_url": "image/avatar/normal.png",
      "image_prompt": "illustration, clear composition, soft lighting, suitable for an event post, scene in Yokosuka, Japan. Inspired by: うんこが臭くて、掃除機で吸い取った方がいいだろう。",
      "image_negative": "photorealistic, text, watermark, logo, low quality, blurry, underexposed, too dark",
      "image_model": "stabilityai/sdxl-turbo",
      "image_generated_at": "2026-04-23T00:44:03Z"
    },
    {
      "id": "feed_20260423_091418",
      "kind": "event",
      "date": "2026-04-23",
      "created_at": "2026-04-23T00:14:18Z",
      "text": "うんこを隠さずに言うとばれた。",
      "tweet": "うんこを隠さずに言うとばれた。",
      "place": "",
      "links": [],
      "avatar_image": "image/avatar/normal.png",
      "permalink": "./posts/feed_20260423_091418/index.html",
      "legacy_id": "fixed-event-20260423_091418",
      "image": "image/feed_20260423_091418.png",
      "image_url": "image/feed_20260423_091418.png",
      "avatar_url": "image/avatar/normal.png",
      "image_prompt": "illustration, clear composition, soft lighting, suitable for an event post, scene in Yokosuka, Japan. Inspired by: うんこを隠さずに言うとばれた。",
      "image_negative": "photorealistic, text, watermark, logo, low quality, blurry, underexposed, too dark",
      "image_model": "stabilityai/sdxl-turbo",
      "image_generated_at": "2026-04-23T00:18:53Z"
    },
    {
      "id": "feed_20260423_021357",
      "kind": "event",
      "date": "2026-04-23",
      "created_at": "2026-04-22T17:13:57Z",
      "text": "うんこのことを思い出しながら会議が進んでいった。",
      "tweet": "うんこのことを思い出しながら会議が進んでいった。",
      "place": "",
      "links": [],
      "avatar_image": "image/avatar/normal.png",
      "permalink": "./posts/feed_20260423_021357/index.html",
      "legacy_id": "fixed-event-20260423_021357",
      "image": "image/feed_20260423_021357.png",
      "image_url": "image/feed_20260423_021357.png",
      "avatar_url": "image/avatar/normal.png",
      "image_prompt": "illustration, clear composition, soft lighting, suitable for an event post, scene in Yokosuka, Japan. Inspired by: うんこのことを思い出しながら会議が進んでいった。",
      "image_negative": "photorealistic, text, watermark, logo, low quality, blurry, underexposed, too dark",
      "image_model": "stabilityai/sdxl-turbo",
      "image_generated_at": "2026-04-22T17:18:26Z"
    },
    {
      "id": "feed_20260423_020426",
      "kind": "event",
      "date": "2026-04-23",
      "created_at": "2026-04-22T17:04:26Z",
      "text": "うんこが出たので、トイレに向かいに行かざるを得なかった。",
      "tweet": "うんこが出たので、トイレに向かいに行かざるを得なかった。",
      "place": "",
      "links": [],
      "avatar_image": "image/avatar/normal.png",
      "permalink": "./posts/feed_20260423_020426/index.html",
      "legacy_id": "fixed-event-20260423_020426",
      "image": "image/feed_20260423_020426.png",
      "image_url": "image/feed_20260423_020426.png",
      "avatar_url": "image/avatar/normal.png",
      "image_prompt": "illustration, clear composition, soft lighting, suitable for an event post, scene in Yokosuka, Japan. Inspired by: うんこが出たので、トイレに向かいに行かざるを得なかった。",
      "image_negative": "photorealistic, text, watermark, logo, low quality, blurry, underexposed, too dark",
      "image_model": "stabilityai/sdxl-turbo",
      "image_generated_at": "2026-04-22T17:08:59Z"
    },
    {
      "id": "feed_20260423_014627",
      "kind": "event",
      "date": "2026-04-23",
      "created_at": "2026-04-22T16:46:27Z",
      "text": "うんこをこらさずにトイレに行ってしまった。",
      "tweet": "うんこをこらさずにトイレに行ってしまった。",
      "place": "",
      "links": [],
      "avatar_image": "image/avatar/normal.png",
      "permalink": "./posts/feed_20260423_014627/index.html"
    },
    {
      "id": "feed_20260423_002640",
      "kind": "event",
      "date": "2026-04-23",
      "created_at": "2026-04-22T15:26:40Z",
      "text": "うんこのことを思い出しつつ、会議は進行していた。",
      "tweet": "うんこのことを思い出しつつ、会議は進行していた。",
      "place": "",
      "links": [],
      "avatar_image": "image/avatar/normal.png",
      "permalink": "./posts/feed_20260423_002640/index.html"
    },
    {
      "id": "feed_20260423_001436",
      "kind": "event",
      "date": "2026-04-23",
      "created_at": "2026-04-22T15:14:36Z",
      "text": "うんこが気持ち悪くて、先生の話題から離れざるを得なかった。",
      "tweet": "うんこが気持ち悪くて、先生の話題から離れざるを得なかった。",
      "place": "",
      "links": [],
      "avatar_image": "image/avatar/normal.png",
      "permalink": "./posts/feed_20260423_001436/index.html"
    },
    {
      "id": "feed_20260422_235937",
      "kind": "event",
      "date": "2026-04-22",
      "created_at": "2026-04-22T14:59:37Z",
      "text": "うんこを蹴っておいたが、今思い出した。",
      "tweet": "うんこを蹴っておいたが、今思い出した。",
      "place": "",
      "links": [],
      "avatar_image": "image/avatar/normal.png",
      "permalink": "./posts/feed_20260422_235937/index.html"
    },
    {
      "id": "feed_20260422_233802",
      "kind": "event",
      "date": "2026-04-22",
      "created_at": "2026-04-22T14:38:02Z",
      "text": "うんこがでてきそうで心配になったので、先生に相談した。",
      "tweet": "うんこがでてきそうで心配になったので、先生に相談した。",
      "place": "",
      "links": [],
      "avatar_image": "image/avatar/normal.png",
      "permalink": "./posts/feed_20260422_233802/index.html"
    },
    {
      "id": "feed_20260422_223519",
      "kind": "event",
      "date": "2026-04-22",
      "created_at": "2026-04-22T13:35:19Z",
      "text": "今日もまた、最後のうんこが出てきたので、便所に行かねばならないと思ったら、部屋の中にうんこが残っていることに気づいた。",
      "tweet": "今日もまた、最後のうんこが出てきたので、便所に行かねばならないと思ったら、部屋の中にうんこが残っていることに気づいた。",
      "place": "",
      "links": [],
      "avatar_image": "image/avatar/event.png",
      "permalink": "./posts/feed_20260422_223519/index.html"
    },
    {
      "id": "feed_20260422_222642",
      "kind": "event",
      "date": "2026-04-22",
      "created_at": "2026-04-22T13:26:42Z",
      "text": "彼はついに、隣の部屋からうんこが漏れ出す音に気づかずにはいられなかった。",
      "tweet": "彼はついに、隣の部屋からうんこが漏れ出す音に気づかずにはいられなかった。",
      "place": "",
      "links": [],
      "avatar_image": "image/avatar/event.png",
      "permalink": "./posts/feed_20260422_222642/index.html"
    }
  ],
  "count": 20,
  "page": 7,
  "page_size": 20,
  "total_items": 166,
  "total_pages": 9,
  "next_feed_url": "./feed/page_008.json"
}
