{
  "items": [
    {
      "id": "feed_20260423_020426",
      "kind": "event",
      "date": "2026-04-23",
      "created_at": "2026-04-22T17:04:26Z",
      "text": "うんこが出たので、トイレに向かいに行かざるを得なかった。",
      "tweet": "うんこが出たので、トイレに向かいに行かざるを得なかった。",
      "place": "",
      "links": [],
      "avatar_image": "image/avatar/normal.png",
      "permalink": "./posts/feed_20260423_020426/index.html",
      "legacy_id": "fixed-event-20260423_020426",
      "image": "image/feed_20260423_020426.png",
      "image_url": "image/feed_20260423_020426.png",
      "avatar_url": "image/avatar/normal.png",
      "image_prompt": "illustration, clear composition, soft lighting, suitable for an event post, scene in Yokosuka, Japan. Inspired by: うんこが出たので、トイレに向かいに行かざるを得なかった。",
      "image_negative": "photorealistic, text, watermark, logo, low quality, blurry, underexposed, too dark",
      "image_model": "stabilityai/sdxl-turbo",
      "image_generated_at": "2026-04-22T17:08:59Z"
    },
    {
      "id": "feed_20260423_014627",
      "kind": "event",
      "date": "2026-04-23",
      "created_at": "2026-04-22T16:46:27Z",
      "text": "うんこをこらさずにトイレに行ってしまった。",
      "tweet": "うんこをこらさずにトイレに行ってしまった。",
      "place": "",
      "links": [],
      "avatar_image": "image/avatar/normal.png",
      "permalink": "./posts/feed_20260423_014627/index.html"
    },
    {
      "id": "feed_20260423_002640",
      "kind": "event",
      "date": "2026-04-23",
      "created_at": "2026-04-22T15:26:40Z",
      "text": "うんこのことを思い出しつつ、会議は進行していた。",
      "tweet": "うんこのことを思い出しつつ、会議は進行していた。",
      "place": "",
      "links": [],
      "avatar_image": "image/avatar/normal.png",
      "permalink": "./posts/feed_20260423_002640/index.html"
    },
    {
      "id": "feed_20260423_001436",
      "kind": "event",
      "date": "2026-04-23",
      "created_at": "2026-04-22T15:14:36Z",
      "text": "うんこが気持ち悪くて、先生の話題から離れざるを得なかった。",
      "tweet": "うんこが気持ち悪くて、先生の話題から離れざるを得なかった。",
      "place": "",
      "links": [],
      "avatar_image": "image/avatar/normal.png",
      "permalink": "./posts/feed_20260423_001436/index.html"
    },
    {
      "id": "feed_20260422_235937",
      "kind": "event",
      "date": "2026-04-22",
      "created_at": "2026-04-22T14:59:37Z",
      "text": "うんこを蹴っておいたが、今思い出した。",
      "tweet": "うんこを蹴っておいたが、今思い出した。",
      "place": "",
      "links": [],
      "avatar_image": "image/avatar/normal.png",
      "permalink": "./posts/feed_20260422_235937/index.html"
    },
    {
      "id": "feed_20260422_233802",
      "kind": "event",
      "date": "2026-04-22",
      "created_at": "2026-04-22T14:38:02Z",
      "text": "うんこがでてきそうで心配になったので、先生に相談した。",
      "tweet": "うんこがでてきそうで心配になったので、先生に相談した。",
      "place": "",
      "links": [],
      "avatar_image": "image/avatar/normal.png",
      "permalink": "./posts/feed_20260422_233802/index.html"
    },
    {
      "id": "feed_20260422_223519",
      "kind": "event",
      "date": "2026-04-22",
      "created_at": "2026-04-22T13:35:19Z",
      "text": "今日もまた、最後のうんこが出てきたので、便所に行かねばならないと思ったら、部屋の中にうんこが残っていることに気づいた。",
      "tweet": "今日もまた、最後のうんこが出てきたので、便所に行かねばならないと思ったら、部屋の中にうんこが残っていることに気づいた。",
      "place": "",
      "links": [],
      "avatar_image": "image/avatar/event.png",
      "permalink": "./posts/feed_20260422_223519/index.html"
    },
    {
      "id": "feed_20260422_222642",
      "kind": "event",
      "date": "2026-04-22",
      "created_at": "2026-04-22T13:26:42Z",
      "text": "彼はついに、隣の部屋からうんこが漏れ出す音に気づかずにはいられなかった。",
      "tweet": "彼はついに、隣の部屋からうんこが漏れ出す音に気づかずにはいられなかった。",
      "place": "",
      "links": [],
      "avatar_image": "image/avatar/event.png",
      "permalink": "./posts/feed_20260422_222642/index.html"
    },
    {
      "id": "feed_20260422_212457",
      "kind": "event",
      "date": "2026-04-22",
      "created_at": "2026-04-22T12:24:57Z",
      "text": "「うんこは最後にトイレに行かなければなりませんね。」",
      "tweet": "「うんこは最後にトイレに行かなければなりませんね。」",
      "place": "",
      "links": [],
      "avatar_image": "image/avatar/event.png",
      "permalink": "./posts/feed_20260422_212457/index.html"
    },
    {
      "kind": "unko",
      "text": "今日はとても立派なうんこを生成した。",
      "tweet": "今日はとても立派なうんこを生成した。",
      "place": "N2",
      "published_at": "2026-04-22T11:57:00.827412Z",
      "created_at": "2026-04-22T11:57:00.827412Z",
      "updated_at": "2026-04-22T11:57:00.827412Z",
      "avatar_image": "image/avatar/normal.png",
      "image": "image/avatar/normal.png",
      "fixed_image": "",
      "links": [],
      "weather": null,
      "id": "feed_20260422_115700",
      "image_url": "image/avatar/normal.png",
      "permalink": "./posts/feed_20260422_115700/index.html"
    },
    {
      "id": "feed_20260422_205042",
      "kind": "event",
      "date": "2026-04-22",
      "created_at": "2026-04-22T11:50:42Z",
      "text": "教室でノートをひっくり返した彼は、慌てて「うんこ」を隠す手遅れの状態になっていた。",
      "tweet": "教室でノートをひっくり返した彼は、慌てて「うんこ」を隠す手遅れの状態になっていた。",
      "place": "",
      "links": [],
      "avatar_image": "image/avatar/event.png",
      "permalink": "./posts/feed_20260422_205042/index.html"
    },
    {
      "id": "feed_20260422_202736",
      "kind": "event",
      "date": "2026-04-22",
      "created_at": "2026-04-22T11:27:36Z",
      "text": "会話中に失敗した彼は、ついにうんこが靴下から滲んでいたことに気づき、隣の席の友人に驚くような表情で告げた。",
      "tweet": "会話中に失敗した彼は、ついにうんこが靴下から滲んでいたことに気づき、隣の席の友人に驚くような表情で告げた。",
      "place": "",
      "links": [],
      "avatar_image": "image/avatar/event.png",
      "permalink": "./posts/feed_20260422_202736/index.html"
    },
    {
      "id": "feed_20260422_200612",
      "kind": "event",
      "date": "2026-04-22",
      "created_at": "2026-04-22T11:06:12Z",
      "text": "今日もまた、お腹が減ってうんこが出るのを我慢しました。",
      "tweet": "今日もまた、お腹が減ってうんこが出るのを我慢しました。",
      "place": "",
      "links": [],
      "avatar_image": "image/avatar/event.png",
      "permalink": "./posts/feed_20260422_200612/index.html"
    },
    {
      "id": "feed_20260422_183019",
      "kind": "event",
      "date": "2026-04-22",
      "created_at": "2026-04-22T09:30:19Z",
      "text": "彼はうんこを隠して、場所を変えてトイレに直行した。",
      "tweet": "彼はうんこを隠して、場所を変えてトイレに直行した。",
      "place": "",
      "links": [],
      "avatar_image": "image/avatar/event.png",
      "permalink": "./posts/feed_20260422_183019/index.html"
    }
  ],
  "count": 14,
  "page": 5,
  "page_size": 20,
  "total_items": 114,
  "total_pages": 6,
  "next_feed_url": ""
}
