{
  "items": [
    {
      "id": "feed_20260422_183019",
      "kind": "event",
      "date": "2026-04-22",
      "created_at": "2026-04-22T09:30:19Z",
      "text": "彼はうんこを隠して、場所を変えてトイレに直行した。",
      "tweet": "彼はうんこを隠して、場所を変えてトイレに直行した。",
      "place": "",
      "links": [],
      "avatar_image": "image/avatar/event.png",
      "permalink": "./posts/feed_20260422_183019/index.html"
    }
  ],
  "count": 1,
  "page": 4,
  "page_size": 20,
  "total_items": 81,
  "total_pages": 5,
  "next_feed_url": ""
}
