{
  "items": [
    {
      "id": "feed_20260426_114150",
      "kind": "event",
      "date": "2026-04-26",
      "created_at": "2026-04-26T02:41:50Z",
      "text": "うんこを見ると笑ってしまう。\n\n\n学習ポイント: 日本語の慣用句「うんこを見る」は、物事を単純化したり、軽くとらえたりすることを意味します。\n\n\n英訳: Seeing poop makes me laugh.",
      "tweet": "うんこを見ると笑ってしまう。\n\n\n学習ポイント: 日本語の慣用句「うんこを見る」は、物事を単純化したり、軽くとらえたりすることを意味します。\n\n\n英訳: Seeing poop makes me laugh.",
      "place": "",
      "links": [],
      "avatar_image": "image/avatar/normal.png",
      "permalink": "./posts/feed_20260426_114150/index.html",
      "study_point": "日本語の慣用句「うんこを見る」は、物事を単純化したり、軽くとらえたりすることを意味します。",
      "translation_en": "Seeing poop makes me laugh.",
      "legacy_id": "fixed-event-20260426_114150",
      "image": "image/feed_20260426_114150.png",
      "image_url": "image/feed_20260426_114150.png",
      "avatar_url": "image/avatar/normal.png",
      "image_prompt": "cinematic illustration, based on this short story: うんこを見ると笑ってしまう。 学習ポイント: 日本語の慣用句「うんこを見る」は、物事を単純化したり、軽くとらえたりすることを意味します。 英訳: Seeing poop makes me laugh., plain illustration only, no readable text, no letters, no captions, no speech bubbles, no signs, no posters, no labels, no handwriting",
      "image_negative": "photorealistic, text, watermark, logo, low quality, blurry, underexposed, too dark, text, letters, words, captions, speech bubbles, dialogue balloons, signs, posters, labels, handwriting, watermark, logo",
      "image_model": "stabilityai/sdxl-turbo",
      "image_generated_at": "2026-04-26T02:46:13Z"
    },
    {
      "id": "feed_20260426_112106",
      "kind": "event",
      "date": "2026-04-26",
      "created_at": "2026-04-26T02:21:06Z",
      "text": "うんこが汚いから、手を洗おうね。\n\n\n学習ポイント: 文型：名詞 + 助詞\n\n\n英訳: It's dirty because of poop, so let's wash our hands.",
      "tweet": "うんこが汚いから、手を洗おうね。\n\n\n学習ポイント: 文型：名詞 + 助詞\n\n\n英訳: It's dirty because of poop, so let's wash our hands.",
      "place": "",
      "links": [],
      "avatar_image": "image/avatar/normal.png",
      "permalink": "./posts/feed_20260426_112106/index.html",
      "study_point": "文型：名詞 + 助詞",
      "translation_en": "It's dirty because of poop, so let's wash our hands.",
      "legacy_id": "fixed-event-20260426_112106",
      "image": "image/feed_20260426_112106.png",
      "image_url": "image/feed_20260426_112106.png",
      "avatar_url": "image/avatar/normal.png",
      "image_prompt": "cinematic illustration, based on this short story: うんこが汚いから、手を洗おうね。 学習ポイント: 文型：名詞 + 助詞 英訳: It's dirty because of poop, so let's wash our hands., plain illustration only, no readable text, no letters, no captions, no speech bubbles, no signs, no posters, no labels, no handwriting",
      "image_negative": "photorealistic, text, watermark, logo, low quality, blurry, underexposed, too dark, text, letters, words, captions, speech bubbles, dialogue balloons, signs, posters, labels, handwriting, watermark, logo",
      "image_model": "stabilityai/sdxl-turbo",
      "image_generated_at": "2026-04-26T02:24:53Z"
    },
    {
      "id": "feed_20260426_084342",
      "kind": "event",
      "date": "2026-04-26",
      "created_at": "2026-04-25T23:43:42Z",
      "text": "うんこが床に転げ出したら大変だ。\n\n\n学習ポイント: 文型：『XXが動詞を動作させる』。この文型は主語と動詞で構成され、主語は一般的な名詞または動詞で表される。例えば、文「うんこが床に転げ出したら大変だ」では、'うんこ'が名詞として使われています。\n\n\n英訳: It would be a big problem if the poop fell off the bed.",
      "tweet": "うんこが床に転げ出したら大変だ。\n\n\n学習ポイント: 文型：『XXが動詞を動作させる』。この文型は主語と動詞で構成され、主語は一般的な名詞または動詞で表される。例えば、文「うんこが床に転げ出したら大変だ」では、'うんこ'が名詞として使われています。\n\n\n英訳: It would be a big problem if the poop fell off the bed.",
      "place": "",
      "links": [],
      "avatar_image": "image/avatar/normal.png",
      "permalink": "./posts/feed_20260426_084342/index.html",
      "study_point": "文型：『XXが動詞を動作させる』。この文型は主語と動詞で構成され、主語は一般的な名詞または動詞で表される。例えば、文「うんこが床に転げ出したら大変だ」では、'うんこ'が名詞として使われています。",
      "translation_en": "It would be a big problem if the poop fell off the bed.",
      "legacy_id": "fixed-event-20260426_084342",
      "image": "image/feed_20260426_084342.png",
      "image_url": "image/feed_20260426_084342.png",
      "avatar_url": "image/avatar/normal.png",
      "image_prompt": "cinematic illustration, based on this short story: うんこが床に転げ出したら大変だ。 学習ポイント: 文型：『XXが動詞を動作させる』。この文型は主語と動詞で構成され、主語は一般的な名詞または動詞で表される。例えば、文「うんこが床に転げ出したら大変だ」では、'うんこ'が名詞として使われています。 英訳: It would be a big problem if the poop fell off the bed., plain illustration only, no readable text, no letters, no captions, no speech bubbles, no signs, no posters, no labels, no handwriting",
      "image_negative": "photorealistic, text, watermark, logo, low quality, blurry, underexposed, too dark, text, letters, words, captions, speech bubbles, dialogue balloons, signs, posters, labels, handwriting, watermark, logo",
      "image_model": "stabilityai/sdxl-turbo",
      "image_generated_at": "2026-04-25T23:48:07Z"
    },
    {
      "id": "feed_20260426_084004",
      "kind": "event",
      "date": "2026-04-26",
      "created_at": "2026-04-25T23:40:04Z",
      "text": "うんこがいっぱいあった。\n\n\n学習ポイント: 『うんこ』の複数形である「うんこたち」を含む表現\n\n\n英訳: There were a lot of poop.",
      "tweet": "うんこがいっぱいあった。\n\n\n学習ポイント: 『うんこ』の複数形である「うんこたち」を含む表現\n\n\n英訳: There were a lot of poop.",
      "place": "",
      "links": [],
      "avatar_image": "image/avatar/normal.png",
      "permalink": "./posts/feed_20260426_084004/index.html",
      "study_point": "『うんこ』の複数形である「うんこたち」を含む表現",
      "translation_en": "There were a lot of poop."
    },
    {
      "id": "feed_20260426_083423",
      "kind": "event",
      "date": "2026-04-26",
      "created_at": "2026-04-25T23:34:23Z",
      "text": "うんこを蹴られて怪我した。\n\n\n学習ポイント: 文型：『...を...する』を使用して動詞を表現します。\n\n\n英訳: I tripped over poop and got hurt.",
      "tweet": "うんこを蹴られて怪我した。\n\n\n学習ポイント: 文型：『...を...する』を使用して動詞を表現します。\n\n\n英訳: I tripped over poop and got hurt.",
      "place": "",
      "links": [],
      "avatar_image": "image/avatar/normal.png",
      "permalink": "./posts/feed_20260426_083423/index.html",
      "study_point": "文型：『...を...する』を使用して動詞を表現します。",
      "translation_en": "I tripped over poop and got hurt."
    },
    {
      "id": "feed_20260426_073845",
      "kind": "event",
      "date": "2026-04-26",
      "created_at": "2026-04-25T22:38:45Z",
      "text": "うんこが臭いから、窓を開けることにした。\n\n\n学習ポイント: 文型：『(前置詞)の＋(動詞短語）』。この構造は、主語とその行為を表現します。\n\n\n英訳: Smelling bad, I opened the window.",
      "tweet": "うんこが臭いから、窓を開けることにした。\n\n\n学習ポイント: 文型：『(前置詞)の＋(動詞短語）』。この構造は、主語とその行為を表現します。\n\n\n英訳: Smelling bad, I opened the window.",
      "place": "",
      "links": [],
      "avatar_image": "image/avatar/normal.png",
      "permalink": "./posts/feed_20260426_073845/index.html",
      "study_point": "文型：『(前置詞)の＋(動詞短語）』。この構造は、主語とその行為を表現します。",
      "translation_en": "Smelling bad, I opened the window.",
      "legacy_id": "fixed-event-20260426_073845",
      "image": "image/feed_20260426_073845.png",
      "image_url": "image/feed_20260426_073845.png",
      "avatar_url": "image/avatar/normal.png",
      "image_prompt": "cinematic illustration, based on this short story: うんこが臭いから、窓を開けることにした。 学習ポイント: 文型：『(前置詞)の＋(動詞短語）』。この構造は、主語とその行為を表現します。 英訳: Smelling bad, I opened the window., plain illustration only, no readable text, no letters, no captions, no speech bubbles, no signs, no posters, no labels, no handwriting",
      "image_negative": "photorealistic, text, watermark, logo, low quality, blurry, underexposed, too dark, text, letters, words, captions, speech bubbles, dialogue balloons, signs, posters, labels, handwriting, watermark, logo",
      "image_model": "stabilityai/sdxl-turbo",
      "image_generated_at": "2026-04-25T22:43:13Z"
    },
    {
      "id": "feed_20260426_063810",
      "kind": "event",
      "date": "2026-04-26",
      "created_at": "2026-04-25T21:38:10Z",
      "text": "今日はうんこをたべたら美味しいから試してみよう。\n\n\n学習ポイント: 本文中の「うんこ」を「排泄物」と解釈。これには個人の好みや文化、科学的な理解などにより様々な意味がある。\n\n\n英訳: Today, eating poop is delicious and worth trying.",
      "tweet": "今日はうんこをたべたら美味しいから試してみよう。\n\n\n学習ポイント: 本文中の「うんこ」を「排泄物」と解釈。これには個人の好みや文化、科学的な理解などにより様々な意味がある。\n\n\n英訳: Today, eating poop is delicious and worth trying.",
      "place": "",
      "links": [],
      "avatar_image": "image/avatar/normal.png",
      "permalink": "./posts/feed_20260426_063810/index.html",
      "study_point": "本文中の「うんこ」を「排泄物」と解釈。これには個人の好みや文化、科学的な理解などにより様々な意味がある。",
      "translation_en": "Today, eating poop is delicious and worth trying.",
      "legacy_id": "fixed-event-20260426_063810",
      "image": "image/feed_20260426_063810.png",
      "image_url": "image/feed_20260426_063810.png",
      "avatar_url": "image/avatar/normal.png",
      "image_prompt": "cinematic illustration, based on this short story: 今日はうんこをたべたら美味しいから試してみよう。 学習ポイント: 本文中の「うんこ」を「排泄物」と解釈。これには個人の好みや文化、科学的な理解などにより様々な意味がある。 英訳: Today, eating poop is delicious and worth trying., plain illustration only, no readable text, no letters, no captions, no speech bubbles, no signs, no posters, no labels, no handwriting",
      "image_negative": "photorealistic, text, watermark, logo, low quality, blurry, underexposed, too dark, text, letters, words, captions, speech bubbles, dialogue balloons, signs, posters, labels, handwriting, watermark, logo",
      "image_model": "stabilityai/sdxl-turbo",
      "image_generated_at": "2026-04-25T21:44:32Z"
    },
    {
      "id": "feed_20260426_054007",
      "kind": "event",
      "date": "2026-04-26",
      "created_at": "2026-04-25T20:40:07Z",
      "text": "うんこが落ちてきたら助けてあげて。\n\n\n学習ポイント: 助ける動作を命令語で表現する。\n\n\n英訳: Help out when poop falls down.",
      "tweet": "うんこが落ちてきたら助けてあげて。\n\n\n学習ポイント: 助ける動作を命令語で表現する。\n\n\n英訳: Help out when poop falls down.",
      "place": "",
      "links": [],
      "avatar_image": "image/avatar/normal.png",
      "permalink": "./posts/feed_20260426_054007/index.html",
      "study_point": "助ける動作を命令語で表現する。",
      "translation_en": "Help out when poop falls down.",
      "legacy_id": "fixed-event-20260426_054007",
      "image": "image/feed_20260426_054007.png",
      "image_url": "image/feed_20260426_054007.png",
      "avatar_url": "image/avatar/normal.png",
      "image_prompt": "cinematic illustration, based on this short story: うんこが落ちてきたら助けてあげて。 学習ポイント: 助ける動作を命令語で表現する。 英訳: Help out when poop falls down., plain illustration only, no readable text, no letters, no captions, no speech bubbles, no signs, no posters, no labels, no handwriting",
      "image_negative": "photorealistic, text, watermark, logo, low quality, blurry, underexposed, too dark, text, letters, words, captions, speech bubbles, dialogue balloons, signs, posters, labels, handwriting, watermark, logo",
      "image_model": "stabilityai/sdxl-turbo",
      "image_generated_at": "2026-04-25T20:44:46Z"
    },
    {
      "id": "feed_20260426_044444",
      "kind": "event",
      "date": "2026-04-26",
      "created_at": "2026-04-25T19:44:44Z",
      "text": "今日の朝食でうんこが入っていた。\n\n\n学習ポイント: 文末に使用される文章形として、かきものを利用することがある。今日の朝食では具体的な例として、かきものを用いて述べた。\n\n\n英訳: There was poop in today's breakfast.",
      "tweet": "今日の朝食でうんこが入っていた。\n\n\n学習ポイント: 文末に使用される文章形として、かきものを利用することがある。今日の朝食では具体的な例として、かきものを用いて述べた。\n\n\n英訳: There was poop in today's breakfast.",
      "place": "",
      "links": [],
      "avatar_image": "image/avatar/normal.png",
      "permalink": "./posts/feed_20260426_044444/index.html",
      "study_point": "文末に使用される文章形として、かきものを利用することがある。今日の朝食では具体的な例として、かきものを用いて述べた。",
      "translation_en": "There was poop in today's breakfast.",
      "legacy_id": "fixed-event-20260426_044444",
      "image": "image/feed_20260426_044444.png",
      "image_url": "image/feed_20260426_044444.png",
      "avatar_url": "image/avatar/normal.png",
      "image_prompt": "cinematic illustration, based on this short story: 今日の朝食でうんこが入っていた。 学習ポイント: 文末に使用される文章形として、かきものを利用することがある。今日の朝食では具体的な例として、かきものを用いて述べた。 英訳: There was poop in today's breakfast., plain illustration only, no readable text, no letters, no captions, no speech bubbles, no signs, no posters, no labels, no handwriting",
      "image_negative": "photorealistic, text, watermark, logo, low quality, blurry, underexposed, too dark, text, letters, words, captions, speech bubbles, dialogue balloons, signs, posters, labels, handwriting, watermark, logo",
      "image_model": "stabilityai/sdxl-turbo",
      "image_generated_at": "2026-04-25T19:49:27Z"
    },
    {
      "id": "feed_20260426_035432",
      "kind": "event",
      "date": "2026-04-26",
      "created_at": "2026-04-25T18:54:32Z",
      "text": "うんこを履いてたんだよ。\n\n\n学習ポイント: 「××を」構造で名詞を動詞前に使用すると、主語の名詞が強調されたり、文の流れが自然になる。この例では、'履いた'という動きに対して'うんこ'という名詞が強く強調されている。\n\n\n英訳: I was wearing poop.",
      "tweet": "うんこを履いてたんだよ。\n\n\n学習ポイント: 「××を」構造で名詞を動詞前に使用すると、主語の名詞が強調されたり、文の流れが自然になる。この例では、'履いた'という動きに対して'うんこ'という名詞が強く強調されている。\n\n\n英訳: I was wearing poop.",
      "place": "",
      "links": [],
      "avatar_image": "image/avatar/normal.png",
      "permalink": "./posts/feed_20260426_035432/index.html",
      "study_point": "「××を」構造で名詞を動詞前に使用すると、主語の名詞が強調されたり、文の流れが自然になる。この例では、'履いた'という動きに対して'うんこ'という名詞が強く強調されている。",
      "translation_en": "I was wearing poop.",
      "legacy_id": "fixed-event-20260426_035432",
      "image": "image/feed_20260426_035432.png",
      "image_url": "image/feed_20260426_035432.png",
      "avatar_url": "image/avatar/normal.png",
      "image_prompt": "cinematic illustration, based on this short story: うんこを履いてたんだよ。 学習ポイント: 「××を」構造で名詞を動詞前に使用すると、主語の名詞が強調されたり、文の流れが自然になる。この例では、'履いた'という動きに対して'うんこ'という名詞が強く強調されている。 英訳: I was wearing poop., plain illustration only, no readable text, no letters, no captions, no speech bubbles, no signs, no posters, no labels, no handwriting",
      "image_negative": "photorealistic, text, watermark, logo, low quality, blurry, underexposed, too dark, text, letters, words, captions, speech bubbles, dialogue balloons, signs, posters, labels, handwriting, watermark, logo",
      "image_model": "stabilityai/sdxl-turbo",
      "image_generated_at": "2026-04-25T18:59:03Z"
    },
    {
      "id": "feed_20260426_023840",
      "kind": "event",
      "date": "2026-04-26",
      "created_at": "2026-04-25T17:38:40Z",
      "text": "うんこが汚いから掃除しなきゃ。\n\n\n学習ポイント: 文型：『[動詞]する必要がある』\n\n\n英訳: Cleaning is necessary because the poop is dirty.",
      "tweet": "うんこが汚いから掃除しなきゃ。\n\n\n学習ポイント: 文型：『[動詞]する必要がある』\n\n\n英訳: Cleaning is necessary because the poop is dirty.",
      "place": "",
      "links": [],
      "avatar_image": "image/avatar/normal.png",
      "permalink": "./posts/feed_20260426_023840/index.html",
      "study_point": "文型：『[動詞]する必要がある』",
      "translation_en": "Cleaning is necessary because the poop is dirty.",
      "legacy_id": "fixed-event-20260426_023840",
      "image": "image/feed_20260426_023840.png",
      "image_url": "image/feed_20260426_023840.png",
      "avatar_url": "image/avatar/normal.png",
      "image_prompt": "cinematic illustration, based on this short story: うんこが汚いから掃除しなきゃ。 学習ポイント: 文型：『[動詞]する必要がある』 英訳: Cleaning is necessary because the poop is dirty., plain illustration only, no readable text, no letters, no captions, no speech bubbles, no signs, no posters, no labels, no handwriting",
      "image_negative": "photorealistic, text, watermark, logo, low quality, blurry, underexposed, too dark, text, letters, words, captions, speech bubbles, dialogue balloons, signs, posters, labels, handwriting, watermark, logo",
      "image_model": "stabilityai/sdxl-turbo",
      "image_generated_at": "2026-04-25T17:43:13Z"
    },
    {
      "id": "feed_20260426_014226",
      "kind": "event",
      "date": "2026-04-26",
      "created_at": "2026-04-25T16:42:26Z",
      "text": "うんこをきれいにすると気持ちいいね。\n\n\n学習ポイント: 「うんこをきれいに」は、便器や床を掃除することを表現します。この文では、「うんこをきれいに」が主語となり、その後の「気持ちいい」という動作を受けます。\n\n\n英訳: Cleaning up after going to the bathroom makes you feel good.",
      "tweet": "うんこをきれいにすると気持ちいいね。\n\n\n学習ポイント: 「うんこをきれいに」は、便器や床を掃除することを表現します。この文では、「うんこをきれいに」が主語となり、その後の「気持ちいい」という動作を受けます。\n\n\n英訳: Cleaning up after going to the bathroom makes you feel good.",
      "place": "",
      "links": [],
      "avatar_image": "image/avatar/normal.png",
      "permalink": "./posts/feed_20260426_014226/index.html",
      "study_point": "「うんこをきれいに」は、便器や床を掃除することを表現します。この文では、「うんこをきれいに」が主語となり、その後の「気持ちいい」という動作を受けます。",
      "translation_en": "Cleaning up after going to the bathroom makes you feel good.",
      "legacy_id": "fixed-event-20260426_014226",
      "image": "image/feed_20260426_014226.png",
      "image_url": "image/feed_20260426_014226.png",
      "avatar_url": "image/avatar/normal.png",
      "image_prompt": "cinematic illustration, based on this short story: うんこをきれいにすると気持ちいいね。 学習ポイント: 「うんこをきれいに」は、便器や床を掃除することを表現します。この文では、「うんこをきれいに」が主語となり、その後の「気持ちいい」という動作を受けます。 英訳: Cleaning up after going to the bathroom makes you feel good., plain illustration only, no readable text, no letters, no captions, no speech bubbles, no signs, no posters, no labels, no handwriting",
      "image_negative": "photorealistic, text, watermark, logo, low quality, blurry, underexposed, too dark, text, letters, words, captions, speech bubbles, dialogue balloons, signs, posters, labels, handwriting, watermark, logo",
      "image_model": "stabilityai/sdxl-turbo",
      "image_generated_at": "2026-04-25T16:47:00Z"
    },
    {
      "id": "feed_20260426_004132",
      "kind": "event",
      "date": "2026-04-26",
      "created_at": "2026-04-25T15:41:32Z",
      "text": "今日の運動会でうんこが入った制服になった。\n\n\n学習ポイント: 文型：副詞的形容詞句。例文では「うんこが」が使用されており、動詞「入った」の前に位置している。\n\n\n英訳: Today's sports meeting ended with a uniform that had poop in it.",
      "tweet": "今日の運動会でうんこが入った制服になった。\n\n\n学習ポイント: 文型：副詞的形容詞句。例文では「うんこが」が使用されており、動詞「入った」の前に位置している。\n\n\n英訳: Today's sports meeting ended with a uniform that had poop in it.",
      "place": "",
      "links": [],
      "avatar_image": "image/avatar/normal.png",
      "permalink": "./posts/feed_20260426_004132/index.html",
      "study_point": "文型：副詞的形容詞句。例文では「うんこが」が使用されており、動詞「入った」の前に位置している。",
      "translation_en": "Today's sports meeting ended with a uniform that had poop in it.",
      "legacy_id": "fixed-event-20260426_004132",
      "image": "image/feed_20260426_004132.png",
      "image_url": "image/feed_20260426_004132.png",
      "avatar_url": "image/avatar/normal.png",
      "image_prompt": "cinematic illustration, based on this short story: 今日の運動会でうんこが入った制服になった。 学習ポイント: 文型：副詞的形容詞句。例文では「うんこが」が使用されており、動詞「入った」の前に位置している。 英訳: Today's sports meeting ended with a uniform that had poop in it., plain illustration only, no readable text, no letters, no captions, no speech bubbles, no signs, no posters, no labels, no handwriting",
      "image_negative": "photorealistic, text, watermark, logo, low quality, blurry, underexposed, too dark, text, letters, words, captions, speech bubbles, dialogue balloons, signs, posters, labels, handwriting, watermark, logo",
      "image_model": "stabilityai/sdxl-turbo",
      "image_generated_at": "2026-04-25T15:46:09Z"
    },
    {
      "id": "feed_20260425_234250",
      "kind": "event",
      "date": "2026-04-25",
      "created_at": "2026-04-25T14:42:50Z",
      "text": "うんこが臭いので、窓を開けることにした。\n\n\n学習ポイント: 文型：「[動詞]が[形容詞/副詞]ので、[補助構文]にすることにした。」は、状況の評価に基づいて行動を決定する表現です。\n\n\n英訳: I opened the window because the smell of poop was strong.",
      "tweet": "うんこが臭いので、窓を開けることにした。\n\n\n学習ポイント: 文型：「[動詞]が[形容詞/副詞]ので、[補助構文]にすることにした。」は、状況の評価に基づいて行動を決定する表現です。\n\n\n英訳: I opened the window because the smell of poop was strong.",
      "place": "",
      "links": [],
      "avatar_image": "image/avatar/normal.png",
      "permalink": "./posts/feed_20260425_234250/index.html",
      "study_point": "文型：「[動詞]が[形容詞/副詞]ので、[補助構文]にすることにした。」は、状況の評価に基づいて行動を決定する表現です。",
      "translation_en": "I opened the window because the smell of poop was strong.",
      "legacy_id": "fixed-event-20260425_234250",
      "image": "image/feed_20260425_234250.png",
      "image_url": "image/feed_20260425_234250.png",
      "avatar_url": "image/avatar/normal.png",
      "image_prompt": "cinematic illustration, based on this short story: うんこが臭いので、窓を開けることにした。 学習ポイント: 文型：「[動詞]が[形容詞/副詞]ので、[補助構文]にすることにした。」は、状況の評価に基づいて行動を決定する表現です。 英訳: I opened the window because the smell of poop was strong., plain illustration only, no readable text, no letters, no captions, no speech bubbles, no signs, no posters, no labels, no handwriting",
      "image_negative": "photorealistic, text, watermark, logo, low quality, blurry, underexposed, too dark, text, letters, words, captions, speech bubbles, dialogue balloons, signs, posters, labels, handwriting, watermark, logo",
      "image_model": "stabilityai/sdxl-turbo",
      "image_generated_at": "2026-04-25T14:47:16Z"
    },
    {
      "id": "feed_20260425_220432",
      "kind": "event",
      "date": "2026-04-25",
      "created_at": "2026-04-25T13:04:32Z",
      "text": "うんこが落ちてきけんのった。\n\n\n学習ポイント: 「きけんのった」は、何かが落ちてきたという状況を表現する慣用句です。ここでは「うんこ」という物が落ちてきていたということを説明しています。\n\n\n英訳: Something fell down, and it was a poop.",
      "tweet": "うんこが落ちてきけんのった。\n\n\n学習ポイント: 「きけんのった」は、何かが落ちてきたという状況を表現する慣用句です。ここでは「うんこ」という物が落ちてきていたということを説明しています。\n\n\n英訳: Something fell down, and it was a poop.",
      "place": "",
      "links": [],
      "avatar_image": "image/avatar/normal.png",
      "permalink": "./posts/feed_20260425_220432/index.html",
      "study_point": "「きけんのった」は、何かが落ちてきたという状況を表現する慣用句です。ここでは「うんこ」という物が落ちてきていたということを説明しています。",
      "translation_en": "Something fell down, and it was a poop.",
      "legacy_id": "fixed-event-20260425_220432",
      "image": "image/feed_20260425_220432.png",
      "image_url": "image/feed_20260425_220432.png",
      "avatar_url": "image/avatar/normal.png",
      "image_prompt": "cinematic illustration, based on this short story: うんこが落ちてきけんのった。 学習ポイント: 「きけんのった」は、何かが落ちてきたという状況を表現する慣用句です。ここでは「うんこ」という物が落ちてきていたということを説明しています。 英訳: Something fell down, and it was a poop., plain illustration only, no readable text, no letters, no captions, no speech bubbles, no signs, no posters, no labels, no handwriting",
      "image_negative": "photorealistic, text, watermark, logo, low quality, blurry, underexposed, too dark, text, letters, words, captions, speech bubbles, dialogue balloons, signs, posters, labels, handwriting, watermark, logo",
      "image_model": "stabilityai/sdxl-turbo",
      "image_generated_at": "2026-04-25T13:08:07Z"
    },
    {
      "id": "feed_20260425_203944",
      "kind": "event",
      "date": "2026-04-25",
      "created_at": "2026-04-25T11:39:44Z",
      "text": "うんこが大切にされるようになった。\n\n\n学習ポイント: 「うんこ」の表現は少々非公式で、日常会話でのコミュニケーションにおいて少し丁寧さや敬意を示す際に使用される。\n\n\n英訳: The term 'poop' is used somewhat informally and is occasionally employed to show a bit of politeness or formality in everyday conversation.",
      "tweet": "うんこが大切にされるようになった。\n\n\n学習ポイント: 「うんこ」の表現は少々非公式で、日常会話でのコミュニケーションにおいて少し丁寧さや敬意を示す際に使用される。\n\n\n英訳: The term 'poop' is used somewhat informally and is occasionally employed to show a bit of politeness or formality in everyday conversation.",
      "place": "",
      "links": [],
      "avatar_image": "image/avatar/normal.png",
      "permalink": "./posts/feed_20260425_203944/index.html",
      "study_point": "「うんこ」の表現は少々非公式で、日常会話でのコミュニケーションにおいて少し丁寧さや敬意を示す際に使用される。",
      "translation_en": "The term 'poop' is used somewhat informally and is occasionally employed to show a bit of politeness or formality in everyday conversation.",
      "legacy_id": "fixed-event-20260425_203944",
      "image": "image/feed_20260425_203944.png",
      "image_url": "image/feed_20260425_203944.png",
      "avatar_url": "image/avatar/normal.png",
      "image_prompt": "cinematic illustration, based on this short story: うんこが大切にされるようになった。 学習ポイント: 「うんこ」の表現は少々非公式で、日常会話でのコミュニケーションにおいて少し丁寧さや敬意を示す際に使用される。 英訳: The term 'poop' is used somewhat informally and is occasionally employed to show a bit of politeness or formality in everyday conversation., plain illustration only, no readable text, no letters, no captions, no speech bubbles, no signs, no posters, no labels, no handwriting",
      "image_negative": "photorealistic, text, watermark, logo, low quality, blurry, underexposed, too dark, text, letters, words, captions, speech bubbles, dialogue balloons, signs, posters, labels, handwriting, watermark, logo",
      "image_model": "stabilityai/sdxl-turbo",
      "image_generated_at": "2026-04-25T11:44:17Z"
    },
    {
      "kind": "unko",
      "text": "今日はとても立派なうんこを生成した。",
      "tweet": "今日はとても立派なうんこを生成した。",
      "place": "N2",
      "published_at": "2026-04-25T11:34:39.117410Z",
      "created_at": "2026-04-25T11:34:39.117410Z",
      "updated_at": "2026-04-25T11:34:39.117410Z",
      "avatar_image": "image/avatar/normal.png",
      "image": "image/avatar/normal.png",
      "fixed_image": "",
      "links": [],
      "weather": null,
      "id": "feed_20260425_113439",
      "image_url": "image/avatar/normal.png",
      "permalink": "./posts/feed_20260425_113439/index.html"
    },
    {
      "id": "feed_20260425_194444",
      "kind": "event",
      "date": "2026-04-25",
      "created_at": "2026-04-25T10:44:44Z",
      "text": "今日、うんこが大きくなった。\n\n\n学習ポイント: 「うんこが大きい」は、「今日の排泄物（うんごしつ）が大きくなった」という意味で、排泄に関する文脈を強調します。\n\n\n英訳: Today, my poop got bigger.",
      "tweet": "今日、うんこが大きくなった。\n\n\n学習ポイント: 「うんこが大きい」は、「今日の排泄物（うんごしつ）が大きくなった」という意味で、排泄に関する文脈を強調します。\n\n\n英訳: Today, my poop got bigger.",
      "place": "",
      "links": [],
      "avatar_image": "image/avatar/normal.png",
      "permalink": "./posts/feed_20260425_194444/index.html",
      "study_point": "「うんこが大きい」は、「今日の排泄物（うんごしつ）が大きくなった」という意味で、排泄に関する文脈を強調します。",
      "translation_en": "Today, my poop got bigger.",
      "legacy_id": "fixed-event-20260425_194444",
      "image": "image/feed_20260425_194444.png",
      "image_url": "image/feed_20260425_194444.png",
      "avatar_url": "image/avatar/normal.png",
      "image_prompt": "cinematic illustration, based on this short story: 今日、うんこが大きくなった。 学習ポイント: 「うんこが大きい」は、「今日の排泄物（うんごしつ）が大きくなった」という意味で、排泄に関する文脈を強調します。 英訳: Today, my poop got bigger., plain illustration only, no readable text, no letters, no captions, no speech bubbles, no signs, no posters, no labels, no handwriting",
      "image_negative": "photorealistic, text, watermark, logo, low quality, blurry, underexposed, too dark, text, letters, words, captions, speech bubbles, dialogue balloons, signs, posters, labels, handwriting, watermark, logo",
      "image_model": "stabilityai/sdxl-turbo",
      "image_generated_at": "2026-04-25T10:48:21Z"
    },
    {
      "id": "feed_20260425_185525",
      "kind": "event",
      "date": "2026-04-25",
      "created_at": "2026-04-25T09:55:25Z",
      "text": "今日の授業でうんこについて学んだ。\n\n\n学習ポイント: 「うんこ」が「排泄物」という意味を持つ。\n\n\n英訳: Today, I learned about 'poop' in class.",
      "tweet": "今日の授業でうんこについて学んだ。\n\n\n学習ポイント: 「うんこ」が「排泄物」という意味を持つ。\n\n\n英訳: Today, I learned about 'poop' in class.",
      "place": "",
      "links": [],
      "avatar_image": "image/avatar/normal.png",
      "permalink": "./posts/feed_20260425_185525/index.html",
      "study_point": "「うんこ」が「排泄物」という意味を持つ。",
      "translation_en": "Today, I learned about 'poop' in class.",
      "legacy_id": "fixed-event-20260425_185525",
      "image": "image/feed_20260425_185525.png",
      "image_url": "image/feed_20260425_185525.png",
      "avatar_url": "image/avatar/normal.png",
      "image_prompt": "cinematic illustration, based on this short story: 今日の授業でうんこについて学んだ。 学習ポイント: 「うんこ」が「排泄物」という意味を持つ。 英訳: Today, I learned about 'poop' in class., plain illustration only, no readable text, no letters, no captions, no speech bubbles, no signs, no posters, no labels, no handwriting",
      "image_negative": "photorealistic, text, watermark, logo, low quality, blurry, underexposed, too dark, text, letters, words, captions, speech bubbles, dialogue balloons, signs, posters, labels, handwriting, watermark, logo",
      "image_model": "stabilityai/sdxl-turbo",
      "image_generated_at": "2026-04-25T10:00:03Z"
    },
    {
      "id": "feed_20260425_175434",
      "kind": "event",
      "date": "2026-04-25",
      "created_at": "2026-04-25T08:54:34Z",
      "text": "うんこが綺麗にできるようになった。\n\n\n学習ポイント: 文型：「前置詞+形容詞」を使用した表現。\n\n\n英訳: I was able to make my poop look neat.",
      "tweet": "うんこが綺麗にできるようになった。\n\n\n学習ポイント: 文型：「前置詞+形容詞」を使用した表現。\n\n\n英訳: I was able to make my poop look neat.",
      "place": "",
      "links": [],
      "avatar_image": "image/avatar/normal.png",
      "permalink": "./posts/feed_20260425_175434/index.html",
      "study_point": "文型：「前置詞+形容詞」を使用した表現。",
      "translation_en": "I was able to make my poop look neat.",
      "legacy_id": "fixed-event-20260425_175434",
      "image": "image/feed_20260425_175434.png",
      "image_url": "image/feed_20260425_175434.png",
      "avatar_url": "image/avatar/normal.png",
      "image_prompt": "cinematic illustration, based on this short story: うんこが綺麗にできるようになった。 学習ポイント: 文型：「前置詞+形容詞」を使用した表現。 英訳: I was able to make my poop look neat., plain illustration only, no readable text, no letters, no captions, no speech bubbles, no signs, no posters, no labels, no handwriting",
      "image_negative": "photorealistic, text, watermark, logo, low quality, blurry, underexposed, too dark, text, letters, words, captions, speech bubbles, dialogue balloons, signs, posters, labels, handwriting, watermark, logo",
      "image_model": "stabilityai/sdxl-turbo",
      "image_generated_at": "2026-04-25T08:59:10Z"
    }
  ],
  "count": 20,
  "page": 6,
  "page_size": 20,
  "total_items": 197,
  "total_pages": 10,
  "next_feed_url": "./feed/page_007.json"
}
