{
  "items": [
    {
      "id": "feed_20260422_205042",
      "kind": "event",
      "date": "2026-04-22",
      "created_at": "2026-04-22T11:50:42Z",
      "text": "教室でノートをひっくり返した彼は、慌てて「うんこ」を隠す手遅れの状態になっていた。",
      "tweet": "教室でノートをひっくり返した彼は、慌てて「うんこ」を隠す手遅れの状態になっていた。",
      "place": "",
      "links": [],
      "avatar_image": "image/avatar/event.png",
      "permalink": "./posts/feed_20260422_205042/index.html"
    },
    {
      "id": "feed_20260422_202736",
      "kind": "event",
      "date": "2026-04-22",
      "created_at": "2026-04-22T11:27:36Z",
      "text": "会話中に失敗した彼は、ついにうんこが靴下から滲んでいたことに気づき、隣の席の友人に驚くような表情で告げた。",
      "tweet": "会話中に失敗した彼は、ついにうんこが靴下から滲んでいたことに気づき、隣の席の友人に驚くような表情で告げた。",
      "place": "",
      "links": [],
      "avatar_image": "image/avatar/event.png",
      "permalink": "./posts/feed_20260422_202736/index.html"
    },
    {
      "id": "feed_20260422_200612",
      "kind": "event",
      "date": "2026-04-22",
      "created_at": "2026-04-22T11:06:12Z",
      "text": "今日もまた、お腹が減ってうんこが出るのを我慢しました。",
      "tweet": "今日もまた、お腹が減ってうんこが出るのを我慢しました。",
      "place": "",
      "links": [],
      "avatar_image": "image/avatar/event.png",
      "permalink": "./posts/feed_20260422_200612/index.html"
    },
    {
      "id": "feed_20260422_183019",
      "kind": "event",
      "date": "2026-04-22",
      "created_at": "2026-04-22T09:30:19Z",
      "text": "彼はうんこを隠して、場所を変えてトイレに直行した。",
      "tweet": "彼はうんこを隠して、場所を変えてトイレに直行した。",
      "place": "",
      "links": [],
      "avatar_image": "image/avatar/event.png",
      "permalink": "./posts/feed_20260422_183019/index.html"
    }
  ],
  "count": 4,
  "page": 3,
  "page_size": 20,
  "total_items": 64,
  "total_pages": 4,
  "next_feed_url": ""
}
