{
  "items": [
    {
      "id": "feed_20260505_144427",
      "kind": "event",
      "date": "2026-05-05",
      "created_at": "2026-05-05T05:44:27Z",
      "text": "うんこをかくのはNGです。\n英訳: One must not defecate.",
      "tweet": "うんこをかくのはNGです。\n英訳: One must not defecate.",
      "place": "",
      "links": [],
      "avatar_image": "image/avatar/normal.png",
      "permalink": "./posts/feed_20260505_144427/index.html"
    },
    {
      "id": "feed_20260505_114142",
      "kind": "event",
      "date": "2026-05-05",
      "created_at": "2026-05-05T02:41:42Z",
      "text": "うんこを拾うと、地面が汚くなる。\n英訳: One must pick up poop to make the ground dirty.",
      "tweet": "うんこを拾うと、地面が汚くなる。\n英訳: One must pick up poop to make the ground dirty.",
      "place": "",
      "links": [],
      "avatar_image": "image/avatar/normal.png",
      "permalink": "./posts/feed_20260505_114142/index.html",
      "legacy_id": "fixed-event-20260505_114142",
      "image": "image/feed_20260505_114142.png",
      "image_url": "image/feed_20260505_114142.png",
      "avatar_url": "image/avatar/normal.png",
      "image_prompt": "cinematic illustration, based on this short story: うんこを拾うと、地面が汚くなる。 英訳: One must pick up poop to make the ground dirty., plain illustration only, no readable text, no letters, no captions, no speech bubbles, no signs, no posters, no labels, no handwriting",
      "image_negative": "photorealistic, text, watermark, logo, low quality, blurry, underexposed, too dark, text, letters, words, captions, speech bubbles, dialogue balloons, signs, posters, labels, handwriting, watermark, logo",
      "image_model": "stabilityai/sdxl-turbo",
      "image_generated_at": "2026-05-05T02:46:28Z"
    },
    {
      "id": "feed_20260505_080525",
      "kind": "event",
      "date": "2026-05-05",
      "created_at": "2026-05-04T23:05:25Z",
      "text": "うんこが汚いね。\n英訳: Nothing is more disgusting than poop.",
      "tweet": "うんこが汚いね。\n英訳: Nothing is more disgusting than poop.",
      "place": "",
      "links": [],
      "avatar_image": "image/avatar/normal.png",
      "permalink": "./posts/feed_20260505_080525/index.html",
      "legacy_id": "fixed-event-20260505_080525",
      "image": "image/feed_20260505_080525.png",
      "image_url": "image/feed_20260505_080525.png",
      "avatar_url": "image/avatar/normal.png",
      "image_prompt": "cinematic illustration, based on this short story: うんこが汚いね。 英訳: Nothing is more disgusting than poop., plain illustration only, no readable text, no letters, no captions, no speech bubbles, no signs, no posters, no labels, no handwriting",
      "image_negative": "photorealistic, text, watermark, logo, low quality, blurry, underexposed, too dark, text, letters, words, captions, speech bubbles, dialogue balloons, signs, posters, labels, handwriting, watermark, logo",
      "image_model": "stabilityai/sdxl-turbo",
      "image_generated_at": "2026-05-04T23:09:55Z"
    },
    {
      "id": "feed_20260505_070340",
      "kind": "event",
      "date": "2026-05-05",
      "created_at": "2026-05-04T22:03:40Z",
      "text": "うんこが食べたい。\n英訳: I want to eat poop.",
      "tweet": "うんこが食べたい。\n英訳: I want to eat poop.",
      "place": "",
      "links": [],
      "avatar_image": "image/avatar/normal.png",
      "permalink": "./posts/feed_20260505_070340/index.html",
      "legacy_id": "fixed-event-20260505_070340",
      "image": "image/feed_20260505_070340.png",
      "image_url": "image/feed_20260505_070340.png",
      "avatar_url": "image/avatar/normal.png",
      "image_prompt": "cinematic illustration, based on this short story: うんこが食べたい。 英訳: I want to eat poop., plain illustration only, no readable text, no letters, no captions, no speech bubbles, no signs, no posters, no labels, no handwriting",
      "image_negative": "photorealistic, text, watermark, logo, low quality, blurry, underexposed, too dark, text, letters, words, captions, speech bubbles, dialogue balloons, signs, posters, labels, handwriting, watermark, logo",
      "image_model": "stabilityai/sdxl-turbo",
      "image_generated_at": "2026-05-04T22:08:12Z"
    },
    {
      "id": "feed_20260505_051559",
      "kind": "event",
      "date": "2026-05-05",
      "created_at": "2026-05-04T20:15:59Z",
      "text": "うんこが落ちました。\n英訳: A piece of poop fell.\n日本語の例文\n英訳",
      "tweet": "うんこが落ちました。\n英訳: A piece of poop fell.\n日本語の例文\n英訳",
      "place": "",
      "links": [],
      "avatar_image": "image/avatar/normal.png",
      "permalink": "./posts/feed_20260505_051559/index.html",
      "legacy_id": "fixed-event-20260505_051559",
      "image": "image/feed_20260505_051559.png",
      "image_url": "image/feed_20260505_051559.png",
      "avatar_url": "image/avatar/normal.png",
      "image_prompt": "cinematic illustration, based on this short story: うんこが落ちました。 英訳: A piece of poop fell. 日本語の例文 英訳, plain illustration only, no readable text, no letters, no captions, no speech bubbles, no signs, no posters, no labels, no handwriting",
      "image_negative": "photorealistic, text, watermark, logo, low quality, blurry, underexposed, too dark, text, letters, words, captions, speech bubbles, dialogue balloons, signs, posters, labels, handwriting, watermark, logo",
      "image_model": "stabilityai/sdxl-turbo",
      "image_generated_at": "2026-05-04T20:20:44Z"
    },
    {
      "id": "feed_20260505_031533",
      "kind": "event",
      "date": "2026-05-05",
      "created_at": "2026-05-04T18:15:33Z",
      "text": "うんこが hungry で、食べたいです。\n英訳: The poop is hungry and wants to eat.",
      "tweet": "うんこが hungry で、食べたいです。\n英訳: The poop is hungry and wants to eat.",
      "place": "",
      "links": [],
      "avatar_image": "image/avatar/normal.png",
      "permalink": "./posts/feed_20260505_031533/index.html",
      "legacy_id": "fixed-event-20260505_031533",
      "image": "image/feed_20260505_031533.png",
      "image_url": "image/feed_20260505_031533.png",
      "avatar_url": "image/avatar/normal.png",
      "image_prompt": "cinematic illustration, based on this short story: うんこが hungry で、食べたいです。 英訳: The poop is hungry and wants to eat., plain illustration only, no readable text, no letters, no captions, no speech bubbles, no signs, no posters, no labels, no handwriting",
      "image_negative": "photorealistic, text, watermark, logo, low quality, blurry, underexposed, too dark, text, letters, words, captions, speech bubbles, dialogue balloons, signs, posters, labels, handwriting, watermark, logo",
      "image_model": "stabilityai/sdxl-turbo",
      "image_generated_at": "2026-05-04T18:20:09Z"
    },
    {
      "id": "feed_20260504_230033",
      "kind": "event",
      "date": "2026-05-04",
      "created_at": "2026-05-04T14:00:33Z",
      "text": "うんこが食べたい。\n英訳: I want to eat poop.",
      "tweet": "うんこが食べたい。\n英訳: I want to eat poop.",
      "place": "",
      "links": [],
      "avatar_image": "image/avatar/normal.png",
      "permalink": "./posts/feed_20260504_230033/index.html",
      "legacy_id": "fixed-event-20260504_230033",
      "image": "image/feed_20260504_230033.png",
      "image_url": "image/feed_20260504_230033.png",
      "avatar_url": "image/avatar/normal.png",
      "image_prompt": "cinematic illustration, based on this short story: うんこが食べたい。 英訳: I want to eat poop., plain illustration only, no readable text, no letters, no captions, no speech bubbles, no signs, no posters, no labels, no handwriting",
      "image_negative": "photorealistic, text, watermark, logo, low quality, blurry, underexposed, too dark, text, letters, words, captions, speech bubbles, dialogue balloons, signs, posters, labels, handwriting, watermark, logo",
      "image_model": "stabilityai/sdxl-turbo",
      "image_generated_at": "2026-05-04T14:05:08Z"
    },
    {
      "id": "feed_20260504_205019",
      "kind": "event",
      "date": "2026-05-04",
      "created_at": "2026-05-04T11:50:19Z",
      "text": "うんこが好きだ。\n英訳: I like poop.",
      "tweet": "うんこが好きだ。\n英訳: I like poop.",
      "place": "",
      "links": [],
      "avatar_image": "image/avatar/normal.png",
      "permalink": "./posts/feed_20260504_205019/index.html",
      "legacy_id": "fixed-event-20260504_205019",
      "image": "image/feed_20260504_205019.png",
      "image_url": "image/feed_20260504_205019.png",
      "avatar_url": "image/avatar/normal.png",
      "image_prompt": "cinematic illustration, based on this short story: うんこが好きだ。 英訳: I like poop., plain illustration only, no readable text, no letters, no captions, no speech bubbles, no signs, no posters, no labels, no handwriting",
      "image_negative": "photorealistic, text, watermark, logo, low quality, blurry, underexposed, too dark, text, letters, words, captions, speech bubbles, dialogue balloons, signs, posters, labels, handwriting, watermark, logo",
      "image_model": "stabilityai/sdxl-turbo",
      "image_generated_at": "2026-05-04T11:54:28Z"
    },
    {
      "id": "feed_20260504_182013",
      "kind": "event",
      "date": "2026-05-04",
      "created_at": "2026-05-04T09:20:13Z",
      "text": "うんこが臭い。\n英訳: Farts are smelly.\n以上、1文2行でご用意しました。",
      "tweet": "うんこが臭い。\n英訳: Farts are smelly.\n以上、1文2行でご用意しました。",
      "place": "",
      "links": [],
      "avatar_image": "image/avatar/normal.png",
      "permalink": "./posts/feed_20260504_182013/index.html",
      "legacy_id": "fixed-event-20260504_182013",
      "image": "image/feed_20260504_182013.png",
      "image_url": "image/feed_20260504_182013.png",
      "avatar_url": "image/avatar/normal.png",
      "image_prompt": "cinematic illustration, based on this short story: うんこが臭い。 英訳: Farts are smelly. 以上、1文2行でご用意しました。, plain illustration only, no readable text, no letters, no captions, no speech bubbles, no signs, no posters, no labels, no handwriting",
      "image_negative": "photorealistic, text, watermark, logo, low quality, blurry, underexposed, too dark, text, letters, words, captions, speech bubbles, dialogue balloons, signs, posters, labels, handwriting, watermark, logo",
      "image_model": "stabilityai/sdxl-turbo",
      "image_generated_at": "2026-05-04T09:24:40Z"
    },
    {
      "id": "feed_20260504_151435",
      "kind": "event",
      "date": "2026-05-04",
      "created_at": "2026-05-04T06:14:35Z",
      "text": "うんこが食べられる。\n英訳: Nothing can eat poop.\n日本語の例文\n英訳",
      "tweet": "うんこが食べられる。\n英訳: Nothing can eat poop.\n日本語の例文\n英訳",
      "place": "",
      "links": [],
      "avatar_image": "image/avatar/normal.png",
      "permalink": "./posts/feed_20260504_151435/index.html",
      "legacy_id": "fixed-event-20260504_151435",
      "image": "image/feed_20260504_151435.png",
      "image_url": "image/feed_20260504_151435.png",
      "avatar_url": "image/avatar/normal.png",
      "image_prompt": "cinematic illustration, based on this short story: うんこが食べられる。 英訳: Nothing can eat poop. 日本語の例文 英訳, plain illustration only, no readable text, no letters, no captions, no speech bubbles, no signs, no posters, no labels, no handwriting",
      "image_negative": "photorealistic, text, watermark, logo, low quality, blurry, underexposed, too dark, text, letters, words, captions, speech bubbles, dialogue balloons, signs, posters, labels, handwriting, watermark, logo",
      "image_model": "stabilityai/sdxl-turbo",
      "image_generated_at": "2026-05-04T06:18:15Z"
    },
    {
      "id": "feed_20260504_114814",
      "kind": "event",
      "date": "2026-05-04",
      "created_at": "2026-05-04T02:48:14Z",
      "text": "うんこが hungry だった。\n英訳: Its poop was hungry.",
      "tweet": "うんこが hungry だった。\n英訳: Its poop was hungry.",
      "place": "",
      "links": [],
      "avatar_image": "image/avatar/normal.png",
      "permalink": "./posts/feed_20260504_114814/index.html",
      "legacy_id": "fixed-event-20260504_114814",
      "image": "image/feed_20260504_114814.png",
      "image_url": "image/feed_20260504_114814.png",
      "avatar_url": "image/avatar/normal.png",
      "image_prompt": "cinematic illustration, based on this short story: うんこが hungry だった。 英訳: Its poop was hungry., plain illustration only, no readable text, no letters, no captions, no speech bubbles, no signs, no posters, no labels, no handwriting",
      "image_negative": "photorealistic, text, watermark, logo, low quality, blurry, underexposed, too dark, text, letters, words, captions, speech bubbles, dialogue balloons, signs, posters, labels, handwriting, watermark, logo",
      "image_model": "stabilityai/sdxl-turbo",
      "image_generated_at": "2026-05-04T02:52:40Z"
    },
    {
      "id": "feed_20260504_084501",
      "kind": "event",
      "date": "2026-05-04",
      "created_at": "2026-05-03T23:45:01Z",
      "text": "うんこが臭い。\n英訳: Stinky poop.",
      "tweet": "うんこが臭い。\n英訳: Stinky poop.",
      "place": "",
      "links": [],
      "avatar_image": "image/avatar/normal.png",
      "permalink": "./posts/feed_20260504_084501/index.html",
      "legacy_id": "fixed-event-20260504_084501",
      "image": "image/feed_20260504_084501.png",
      "image_url": "image/feed_20260504_084501.png",
      "avatar_url": "image/avatar/normal.png",
      "image_prompt": "cinematic illustration, based on this short story: うんこが臭い。 英訳: Stinky poop., plain illustration only, no readable text, no letters, no captions, no speech bubbles, no signs, no posters, no labels, no handwriting",
      "image_negative": "photorealistic, text, watermark, logo, low quality, blurry, underexposed, too dark, text, letters, words, captions, speech bubbles, dialogue balloons, signs, posters, labels, handwriting, watermark, logo",
      "image_model": "stabilityai/sdxl-turbo",
      "image_generated_at": "2026-05-03T23:49:31Z"
    },
    {
      "id": "feed_20260504_074202",
      "kind": "event",
      "date": "2026-05-04",
      "created_at": "2026-05-03T22:42:02Z",
      "text": "うんこが落ちると水に溶ける。\n英訳: If something poops falls, it dissolves in water.",
      "tweet": "うんこが落ちると水に溶ける。\n英訳: If something poops falls, it dissolves in water.",
      "place": "",
      "links": [],
      "avatar_image": "image/avatar/normal.png",
      "permalink": "./posts/feed_20260504_074202/index.html",
      "legacy_id": "fixed-event-20260504_074202",
      "image": "image/feed_20260504_074202.png",
      "image_url": "image/feed_20260504_074202.png",
      "avatar_url": "image/avatar/normal.png",
      "image_prompt": "cinematic illustration, based on this short story: うんこが落ちると水に溶ける。 英訳: If something poops falls, it dissolves in water., plain illustration only, no readable text, no letters, no captions, no speech bubbles, no signs, no posters, no labels, no handwriting",
      "image_negative": "photorealistic, text, watermark, logo, low quality, blurry, underexposed, too dark, text, letters, words, captions, speech bubbles, dialogue balloons, signs, posters, labels, handwriting, watermark, logo",
      "image_model": "stabilityai/sdxl-turbo",
      "image_generated_at": "2026-05-03T22:46:36Z"
    },
    {
      "id": "feed_20260504_064203",
      "kind": "event",
      "date": "2026-05-04",
      "created_at": "2026-05-03T21:42:03Z",
      "text": "うんこが落ちた。\n英訳: A piece of poop fell.",
      "tweet": "うんこが落ちた。\n英訳: A piece of poop fell.",
      "place": "",
      "links": [],
      "avatar_image": "image/avatar/normal.png",
      "permalink": "./posts/feed_20260504_064203/index.html",
      "legacy_id": "fixed-event-20260504_064203",
      "image": "image/feed_20260504_064203.png",
      "image_url": "image/feed_20260504_064203.png",
      "avatar_url": "image/avatar/normal.png",
      "image_prompt": "cinematic illustration, based on this short story: うんこが落ちた。 英訳: A piece of poop fell., plain illustration only, no readable text, no letters, no captions, no speech bubbles, no signs, no posters, no labels, no handwriting",
      "image_negative": "photorealistic, text, watermark, logo, low quality, blurry, underexposed, too dark, text, letters, words, captions, speech bubbles, dialogue balloons, signs, posters, labels, handwriting, watermark, logo",
      "image_model": "stabilityai/sdxl-turbo",
      "image_generated_at": "2026-05-03T21:46:33Z"
    },
    {
      "id": "feed_20260504_054953",
      "kind": "event",
      "date": "2026-05-04",
      "created_at": "2026-05-03T20:49:53Z",
      "text": "うんこが好きです。\n英訳: I like poop.",
      "tweet": "うんこが好きです。\n英訳: I like poop.",
      "place": "",
      "links": [],
      "avatar_image": "image/avatar/normal.png",
      "permalink": "./posts/feed_20260504_054953/index.html",
      "legacy_id": "fixed-event-20260504_054953",
      "image": "image/feed_20260504_054953.png",
      "image_url": "image/feed_20260504_054953.png",
      "avatar_url": "image/avatar/normal.png",
      "image_prompt": "cinematic illustration, based on this short story: うんこが好きです。 英訳: I like poop., plain illustration only, no readable text, no letters, no captions, no speech bubbles, no signs, no posters, no labels, no handwriting",
      "image_negative": "photorealistic, text, watermark, logo, low quality, blurry, underexposed, too dark, text, letters, words, captions, speech bubbles, dialogue balloons, signs, posters, labels, handwriting, watermark, logo",
      "image_model": "stabilityai/sdxl-turbo",
      "image_generated_at": "2026-05-03T20:54:46Z"
    },
    {
      "id": "feed_20260504_045820",
      "kind": "event",
      "date": "2026-05-04",
      "created_at": "2026-05-03T19:58:20Z",
      "text": "うんこが hungry に見えました。\n英訳: The poop looks hungry.",
      "tweet": "うんこが hungry に見えました。\n英訳: The poop looks hungry.",
      "place": "",
      "links": [],
      "avatar_image": "image/avatar/normal.png",
      "permalink": "./posts/feed_20260504_045820/index.html",
      "legacy_id": "fixed-event-20260504_045820",
      "image": "image/feed_20260504_045820.png",
      "image_url": "image/feed_20260504_045820.png",
      "avatar_url": "image/avatar/normal.png",
      "image_prompt": "cinematic illustration, based on this short story: うんこが hungry に見えました。 英訳: The poop looks hungry., plain illustration only, no readable text, no letters, no captions, no speech bubbles, no signs, no posters, no labels, no handwriting",
      "image_negative": "photorealistic, text, watermark, logo, low quality, blurry, underexposed, too dark, text, letters, words, captions, speech bubbles, dialogue balloons, signs, posters, labels, handwriting, watermark, logo",
      "image_model": "stabilityai/sdxl-turbo",
      "image_generated_at": "2026-05-03T20:02:54Z"
    },
    {
      "id": "feed_20260504_035957",
      "kind": "event",
      "date": "2026-05-04",
      "created_at": "2026-05-03T18:59:57Z",
      "text": "うんこがいっぱいあります。\n英訳: There are many poop.",
      "tweet": "うんこがいっぱいあります。\n英訳: There are many poop.",
      "place": "",
      "links": [],
      "avatar_image": "image/avatar/normal.png",
      "permalink": "./posts/feed_20260504_035957/index.html",
      "legacy_id": "fixed-event-20260504_035957",
      "image": "image/feed_20260504_035957.png",
      "image_url": "image/feed_20260504_035957.png",
      "avatar_url": "image/avatar/normal.png",
      "image_prompt": "cinematic illustration, based on this short story: うんこがいっぱいあります。 英訳: There are many poop., plain illustration only, no readable text, no letters, no captions, no speech bubbles, no signs, no posters, no labels, no handwriting",
      "image_negative": "photorealistic, text, watermark, logo, low quality, blurry, underexposed, too dark, text, letters, words, captions, speech bubbles, dialogue balloons, signs, posters, labels, handwriting, watermark, logo",
      "image_model": "stabilityai/sdxl-turbo",
      "image_generated_at": "2026-05-03T19:04:42Z"
    },
    {
      "id": "feed_20260504_024805",
      "kind": "event",
      "date": "2026-05-04",
      "created_at": "2026-05-03T17:48:05Z",
      "text": "うんこが落ちた。\n英訳: The poop fell.",
      "tweet": "うんこが落ちた。\n英訳: The poop fell.",
      "place": "",
      "links": [],
      "avatar_image": "image/avatar/normal.png",
      "permalink": "./posts/feed_20260504_024805/index.html",
      "legacy_id": "fixed-event-20260504_024805",
      "image": "image/feed_20260504_024805.png",
      "image_url": "image/feed_20260504_024805.png",
      "avatar_url": "image/avatar/normal.png",
      "image_prompt": "cinematic illustration, based on this short story: うんこが落ちた。 英訳: The poop fell., plain illustration only, no readable text, no letters, no captions, no speech bubbles, no signs, no posters, no labels, no handwriting",
      "image_negative": "photorealistic, text, watermark, logo, low quality, blurry, underexposed, too dark, text, letters, words, captions, speech bubbles, dialogue balloons, signs, posters, labels, handwriting, watermark, logo",
      "image_model": "stabilityai/sdxl-turbo",
      "image_generated_at": "2026-05-03T17:52:44Z"
    },
    {
      "id": "feed_20260504_015136",
      "kind": "event",
      "date": "2026-05-04",
      "created_at": "2026-05-03T16:51:36Z",
      "text": "うんこが臭い。\n英訳: The poop smells.",
      "tweet": "うんこが臭い。\n英訳: The poop smells.",
      "place": "",
      "links": [],
      "avatar_image": "image/avatar/normal.png",
      "permalink": "./posts/feed_20260504_015136/index.html",
      "legacy_id": "fixed-event-20260504_015136",
      "image": "image/feed_20260504_015136.png",
      "image_url": "image/feed_20260504_015136.png",
      "avatar_url": "image/avatar/normal.png",
      "image_prompt": "cinematic illustration, based on this short story: うんこが臭い。 英訳: The poop smells., plain illustration only, no readable text, no letters, no captions, no speech bubbles, no signs, no posters, no labels, no handwriting",
      "image_negative": "photorealistic, text, watermark, logo, low quality, blurry, underexposed, too dark, text, letters, words, captions, speech bubbles, dialogue balloons, signs, posters, labels, handwriting, watermark, logo",
      "image_model": "stabilityai/sdxl-turbo",
      "image_generated_at": "2026-05-03T16:57:55Z"
    },
    {
      "id": "feed_20260504_004730",
      "kind": "event",
      "date": "2026-05-04",
      "created_at": "2026-05-03T15:47:30Z",
      "text": "うんこが落ちた。\n英訳: A piece of poop fell.",
      "tweet": "うんこが落ちた。\n英訳: A piece of poop fell.",
      "place": "",
      "links": [],
      "avatar_image": "image/avatar/normal.png",
      "permalink": "./posts/feed_20260504_004730/index.html",
      "legacy_id": "fixed-event-20260504_004730",
      "image": "image/feed_20260504_064203.png",
      "image_url": "image/feed_20260504_064203.png",
      "avatar_url": "image/avatar/normal.png",
      "image_prompt": "cinematic illustration, based on this short story: うんこが落ちた。 英訳: A piece of poop fell., plain illustration only, no readable text, no letters, no captions, no speech bubbles, no signs, no posters, no labels, no handwriting",
      "image_negative": "photorealistic, text, watermark, logo, low quality, blurry, underexposed, too dark, text, letters, words, captions, speech bubbles, dialogue balloons, signs, posters, labels, handwriting, watermark, logo",
      "image_model": "stabilityai/sdxl-turbo",
      "image_generated_at": "2026-05-03T21:46:33Z"
    }
  ],
  "count": 20,
  "page": 0,
  "page_size": 20,
  "total_items": 200,
  "total_pages": 10,
  "next_feed_url": "./feed/page_001.json"
}
